{
	"data": [
		{
			"id": 618,
			"parent": 0,
			"start_date": "",
			"text": "PO",
			"progress": 1,
			"duration": "",
			"sortorder": 1,
			"open": false,
			"DO_MAX_Cost": "0/0",
			"PO_MAX_Cost": "217/28205",
			"MO_MAX_Cost": "0/0",
			"MAT_MAX_Cost": 150918,
			"type": "project"
		},
		{
			"id": 11329,
			"parent": 618,
			"text": "Electrical installation for Aerolite 6 Stk. EMS Kit -V3",
			"owner_id": 1072,
			"start_date": "2018-03-22 00:00:00",
			"progress": 1,
			"duration": 219,
			"sortorder": 2,
			"open": false,
			"DO_MAX_Cost": 0,
			"PO_MAX_Cost": 0,
			"MO_MAX_Cost": 0,
			"MAT_MAX_Cost": 111941,
			"type": "task"
		},
		{
			"id": 3852,
			"parent": 11329,
			"owner_id": 1072,
			"text": "909.1.1313849.38.1",
			"start_date": "2017-12-18 11:20:20",
			"progress": null,
			"duration": 2.5,
			"sortorder": 3,
			"open": false,
			"DO_MAX_Cost": 0,
			"PO_MAX_Cost": 0,
			"MO_MAX_Cost": 0,
			"MAT_MAX_Cost": 111941,
			"type": "subtask",
			"color": "#c30"
		},
		{
			"id": 4113,
			"parent": 11329,
			"owner_id": 1115,
			"text": "2 Kits rüsten und auf LS buchen.",
			"start_date": "2018-02-22 10:30:50",
			"progress": null,
			"duration": 5.6,
			"sortorder": 4,
			"open": false,
			"DO_MAX_Cost": 0,
			"PO_MAX_Cost": 0,
			"MO_MAX_Cost": 0,
			"MAT_MAX_Cost": 111941,
			"type": "subtask",
			"color": "#c30"
		},
		{
			"id": 4114,
			"parent": 11329,
			"owner_id": 1029,
			"text": "Beschaffung 1033018.17.2 20Stück. 12.03.2018 bei KUAV",
			"start_date": "2018-02-22 10:31:13",
			"progress": null,
			"duration": 0.6,
			"sortorder": 5,
			"open": false,
			"DO_MAX_Cost": 0,
			"PO_MAX_Cost": 0,
			"MO_MAX_Cost": 0,
			"MAT_MAX_Cost": 111941,
			"type": "subtask",
			"color": "#c30"
		},
		{
			"id": 4115,
			"parent": 11329,
			"owner_id": 1087,
			"text": "PCLC PCB Assy Freigabe zur Beschaffung",
			"start_date": "2018-02-22 10:32:11",
			"progress": null,
			"duration": 6.6,
			"sortorder": 6,
			"open": false,
			"DO_MAX_Cost": 0,
			"PO_MAX_Cost": 0,
			"MO_MAX_Cost": 0,
			"MAT_MAX_Cost": 111941,
			"type": "subtask",
			"color": "#c30"
		},
		{
			"id": 4270,
			"parent": 11329,
			"owner_id": 1124,
			"text": "1056.1.1619171-1-32 LÖTEN",
			"start_date": "2018-03-15 14:41:27",
			"progress": null,
			"duration": 31.3,
			"sortorder": 7,
			"open": false,
			"DO_MAX_Cost": 0,
			"PO_MAX_Cost": 0,
			"MO_MAX_Cost": 0,
			"MAT_MAX_Cost": 111941,
			"type": "subtask",
			"color": "#c30"
		},
		{
			"id": 4271,
			"parent": 11329,
			"owner_id": 1115,
			"text": "1056.1.1619171-1-32 RÜSTEN",
			"start_date": "2018-03-15 14:41:43",
			"progress": null,
			"duration": 6.4,
			"sortorder": 8,
			"open": false,
			"DO_MAX_Cost": 0,
			"PO_MAX_Cost": 0,
			"MO_MAX_Cost": 0,
			"MAT_MAX_Cost": 111941,
			"type": "subtask",
			"color": "#c30"
		},
		{
			"id": 4272,
			"parent": 11329,
			"owner_id": 1101,
			"text": "1056.1.1619171-1-32",
			"start_date": "2018-03-15 14:42:52",
			"progress": null,
			"duration": 13.3,
			"sortorder": 9,
			"open": false,
			"DO_MAX_Cost": 0,
			"PO_MAX_Cost": 0,
			"MO_MAX_Cost": 0,
			"MAT_MAX_Cost": 111941,
			"type": "subtask",
			"color": "#c30"
		},
		{
			"id": 4322,
			"parent": 11329,
			"owner_id": 1124,
			"text": "1092.1.1722556-2.1 Produktion",
			"start_date": "2018-03-29 11:26:59",
			"progress": null,
			"duration": 14.5,
			"sortorder": 10,
			"open": false,
			"DO_MAX_Cost": 0,
			"PO_MAX_Cost": 0,
			"MO_MAX_Cost": 0,
			"MAT_MAX_Cost": 111941,
			"type": "subtask",
			"color": "#c30"
		},
		{
			"id": 4344,
			"parent": 11329,
			"owner_id": 1115,
			"text": "1092.1.1722556-2.1",
			"start_date": "2018-04-05 08:49:04",
			"progress": null,
			"duration": 6.6,
			"sortorder": 11,
			"open": false,
			"DO_MAX_Cost": 0,
			"PO_MAX_Cost": 0,
			"MO_MAX_Cost": 0,
			"MAT_MAX_Cost": 111941,
			"type": "subtask",
			"color": "#c30"
		},
		{
			"id": 11329,
			"parent": 618,
			"text": "Electrical installation for Aerolite 6 Stk. EMS Kit -V3",
			"owner_id": 1115,
			"start_date": "2018-03-22 00:00:00",
			"progress": 1,
			"duration": 219,
			"sortorder": 12,
			"open": false,
			"DO_MAX_Cost": 0,
			"PO_MAX_Cost": 0,
			"MO_MAX_Cost": 0,
			"MAT_MAX_Cost": 111941,
			"type": "task"
		},
		{
			"id": 3852,
			"parent": 11329,
			"owner_id": 1072,
			"text": "909.1.1313849.38.1",
			"start_date": "2017-12-18 11:20:20",
			"progress": null,
			"duration": 2.5,
			"sortorder": 13,
			"open": false,
			"DO_MAX_Cost": 0,
			"PO_MAX_Cost": 0,
			"MO_MAX_Cost": 0,
			"MAT_MAX_Cost": 111941,
			"type": "subtask",
			"color": "#c30"
		},
		{
			"id": 4113,
			"parent": 11329,
			"owner_id": 1115,
			"text": "2 Kits rüsten und auf LS buchen.",
			"start_date": "2018-02-22 10:30:50",
			"progress": null,
			"duration": 5.6,
			"sortorder": 14,
			"open": false,
			"DO_MAX_Cost": 0,
			"PO_MAX_Cost": 0,
			"MO_MAX_Cost": 0,
			"MAT_MAX_Cost": 111941,
			"type": "subtask",
			"color": "#c30"
		},
		{
			"id": 4114,
			"parent": 11329,
			"owner_id": 1029,
			"text": "Beschaffung 1033018.17.2 20Stück. 12.03.2018 bei KUAV",
			"start_date": "2018-02-22 10:31:13",
			"progress": null,
			"duration": 0.6,
			"sortorder": 15,
			"open": false,
			"DO_MAX_Cost": 0,
			"PO_MAX_Cost": 0,
			"MO_MAX_Cost": 0,
			"MAT_MAX_Cost": 111941,
			"type": "subtask",
			"color": "#c30"
		},
		{
			"id": 4115,
			"parent": 11329,
			"owner_id": 1087,
			"text": "PCLC PCB Assy Freigabe zur Beschaffung",
			"start_date": "2018-02-22 10:32:11",
			"progress": null,
			"duration": 6.6,
			"sortorder": 16,
			"open": false,
			"DO_MAX_Cost": 0,
			"PO_MAX_Cost": 0,
			"MO_MAX_Cost": 0,
			"MAT_MAX_Cost": 111941,
			"type": "subtask",
			"color": "#c30"
		},
		{
			"id": 4270,
			"parent": 11329,
			"owner_id": 1124,
			"text": "1056.1.1619171-1-32 LÖTEN",
			"start_date": "2018-03-15 14:41:27",
			"progress": null,
			"duration": 31.3,
			"sortorder": 17,
			"open": false,
			"DO_MAX_Cost": 0,
			"PO_MAX_Cost": 0,
			"MO_MAX_Cost": 0,
			"MAT_MAX_Cost": 111941,
			"type": "subtask",
			"color": "#c30"
		},
		{
			"id": 4271,
			"parent": 11329,
			"owner_id": 1115,
			"text": "1056.1.1619171-1-32 RÜSTEN",
			"start_date": "2018-03-15 14:41:43",
			"progress": null,
			"duration": 6.4,
			"sortorder": 18,
			"open": false,
			"DO_MAX_Cost": 0,
			"PO_MAX_Cost": 0,
			"MO_MAX_Cost": 0,
			"MAT_MAX_Cost": 111941,
			"type": "subtask",
			"color": "#c30"
		},
		{
			"id": 4272,
			"parent": 11329,
			"owner_id": 1101,
			"text": "1056.1.1619171-1-32",
			"start_date": "2018-03-15 14:42:52",
			"progress": null,
			"duration": 13.3,
			"sortorder": 19,
			"open": false,
			"DO_MAX_Cost": 0,
			"PO_MAX_Cost": 0,
			"MO_MAX_Cost": 0,
			"MAT_MAX_Cost": 111941,
			"type": "subtask",
			"color": "#c30"
		},
		{
			"id": 4322,
			"parent": 11329,
			"owner_id": 1124,
			"text": "1092.1.1722556-2.1 Produktion",
			"start_date": "2018-03-29 11:26:59",
			"progress": null,
			"duration": 14.5,
			"sortorder": 20,
			"open": false,
			"DO_MAX_Cost": 0,
			"PO_MAX_Cost": 0,
			"MO_MAX_Cost": 0,
			"MAT_MAX_Cost": 111941,
			"type": "subtask",
			"color": "#c30"
		},
		{
			"id": 4344,
			"parent": 11329,
			"owner_id": 1115,
			"text": "1092.1.1722556-2.1",
			"start_date": "2018-04-05 08:49:04",
			"progress": null,
			"duration": 6.6,
			"sortorder": 21,
			"open": false,
			"DO_MAX_Cost": 0,
			"PO_MAX_Cost": 0,
			"MO_MAX_Cost": 0,
			"MAT_MAX_Cost": 111941,
			"type": "subtask",
			"color": "#c30"
		},
		{
			"id": 11329,
			"parent": 618,
			"text": "Electrical installation for Aerolite 6 Stk. EMS Kit -V3",
			"owner_id": 1029,
			"start_date": "2018-03-22 00:00:00",
			"progress": 1,
			"duration": 219,
			"sortorder": 22,
			"open": false,
			"DO_MAX_Cost": 0,
			"PO_MAX_Cost": 0,
			"MO_MAX_Cost": 0,
			"MAT_MAX_Cost": 111941,
			"type": "task"
		},
		{
			"id": 3852,
			"parent": 11329,
			"owner_id": 1072,
			"text": "909.1.1313849.38.1",
			"start_date": "2017-12-18 11:20:20",
			"progress": null,
			"duration": 2.5,
			"sortorder": 23,
			"open": false,
			"DO_MAX_Cost": 0,
			"PO_MAX_Cost": 0,
			"MO_MAX_Cost": 0,
			"MAT_MAX_Cost": 111941,
			"type": "subtask",
			"color": "#c30"
		},
		{
			"id": 4113,
			"parent": 11329,
			"owner_id": 1115,
			"text": "2 Kits rüsten und auf LS buchen.",
			"start_date": "2018-02-22 10:30:50",
			"progress": null,
			"duration": 5.6,
			"sortorder": 24,
			"open": false,
			"DO_MAX_Cost": 0,
			"PO_MAX_Cost": 0,
			"MO_MAX_Cost": 0,
			"MAT_MAX_Cost": 111941,
			"type": "subtask",
			"color": "#c30"
		},
		{
			"id": 4114,
			"parent": 11329,
			"owner_id": 1029,
			"text": "Beschaffung 1033018.17.2 20Stück. 12.03.2018 bei KUAV",
			"start_date": "2018-02-22 10:31:13",
			"progress": null,
			"duration": 0.6,
			"sortorder": 25,
			"open": false,
			"DO_MAX_Cost": 0,
			"PO_MAX_Cost": 0,
			"MO_MAX_Cost": 0,
			"MAT_MAX_Cost": 111941,
			"type": "subtask",
			"color": "#c30"
		},
		{
			"id": 4115,
			"parent": 11329,
			"owner_id": 1087,
			"text": "PCLC PCB Assy Freigabe zur Beschaffung",
			"start_date": "2018-02-22 10:32:11",
			"progress": null,
			"duration": 6.6,
			"sortorder": 26,
			"open": false,
			"DO_MAX_Cost": 0,
			"PO_MAX_Cost": 0,
			"MO_MAX_Cost": 0,
			"MAT_MAX_Cost": 111941,
			"type": "subtask",
			"color": "#c30"
		},
		{
			"id": 4270,
			"parent": 11329,
			"owner_id": 1124,
			"text": "1056.1.1619171-1-32 LÖTEN",
			"start_date": "2018-03-15 14:41:27",
			"progress": null,
			"duration": 31.3,
			"sortorder": 27,
			"open": false,
			"DO_MAX_Cost": 0,
			"PO_MAX_Cost": 0,
			"MO_MAX_Cost": 0,
			"MAT_MAX_Cost": 111941,
			"type": "subtask",
			"color": "#c30"
		},
		{
			"id": 4271,
			"parent": 11329,
			"owner_id": 1115,
			"text": "1056.1.1619171-1-32 RÜSTEN",
			"start_date": "2018-03-15 14:41:43",
			"progress": null,
			"duration": 6.4,
			"sortorder": 28,
			"open": false,
			"DO_MAX_Cost": 0,
			"PO_MAX_Cost": 0,
			"MO_MAX_Cost": 0,
			"MAT_MAX_Cost": 111941,
			"type": "subtask",
			"color": "#c30"
		},
		{
			"id": 4272,
			"parent": 11329,
			"owner_id": 1101,
			"text": "1056.1.1619171-1-32",
			"start_date": "2018-03-15 14:42:52",
			"progress": null,
			"duration": 13.3,
			"sortorder": 29,
			"open": false,
			"DO_MAX_Cost": 0,
			"PO_MAX_Cost": 0,
			"MO_MAX_Cost": 0,
			"MAT_MAX_Cost": 111941,
			"type": "subtask",
			"color": "#c30"
		},
		{
			"id": 4322,
			"parent": 11329,
			"owner_id": 1124,
			"text": "1092.1.1722556-2.1 Produktion",
			"start_date": "2018-03-29 11:26:59",
			"progress": null,
			"duration": 14.5,
			"sortorder": 30,
			"open": false,
			"DO_MAX_Cost": 0,
			"PO_MAX_Cost": 0,
			"MO_MAX_Cost": 0,
			"MAT_MAX_Cost": 111941,
			"type": "subtask",
			"color": "#c30"
		},
		{
			"id": 4344,
			"parent": 11329,
			"owner_id": 1115,
			"text": "1092.1.1722556-2.1",
			"start_date": "2018-04-05 08:49:04",
			"progress": null,
			"duration": 6.6,
			"sortorder": 31,
			"open": false,
			"DO_MAX_Cost": 0,
			"PO_MAX_Cost": 0,
			"MO_MAX_Cost": 0,
			"MAT_MAX_Cost": 111941,
			"type": "subtask",
			"color": "#c30"
		},
		{
			"id": 11329,
			"parent": 618,
			"text": "Electrical installation for Aerolite 6 Stk. EMS Kit -V3",
			"owner_id": 1087,
			"start_date": "2018-03-22 00:00:00",
			"progress": 1,
			"duration": 219,
			"sortorder": 32,
			"open": false,
			"DO_MAX_Cost": 0,
			"PO_MAX_Cost": 0,
			"MO_MAX_Cost": 0,
			"MAT_MAX_Cost": 111941,
			"type": "task"
		},
		{
			"id": 3852,
			"parent": 11329,
			"owner_id": 1072,
			"text": "909.1.1313849.38.1",
			"start_date": "2017-12-18 11:20:20",
			"progress": null,
			"duration": 2.5,
			"sortorder": 33,
			"open": false,
			"DO_MAX_Cost": 0,
			"PO_MAX_Cost": 0,
			"MO_MAX_Cost": 0,
			"MAT_MAX_Cost": 111941,
			"type": "subtask",
			"color": "#c30"
		},
		{
			"id": 4113,
			"parent": 11329,
			"owner_id": 1115,
			"text": "2 Kits rüsten und auf LS buchen.",
			"start_date": "2018-02-22 10:30:50",
			"progress": null,
			"duration": 5.6,
			"sortorder": 34,
			"open": false,
			"DO_MAX_Cost": 0,
			"PO_MAX_Cost": 0,
			"MO_MAX_Cost": 0,
			"MAT_MAX_Cost": 111941,
			"type": "subtask",
			"color": "#c30"
		},
		{
			"id": 4114,
			"parent": 11329,
			"owner_id": 1029,
			"text": "Beschaffung 1033018.17.2 20Stück. 12.03.2018 bei KUAV",
			"start_date": "2018-02-22 10:31:13",
			"progress": null,
			"duration": 0.6,
			"sortorder": 35,
			"open": false,
			"DO_MAX_Cost": 0,
			"PO_MAX_Cost": 0,
			"MO_MAX_Cost": 0,
			"MAT_MAX_Cost": 111941,
			"type": "subtask",
			"color": "#c30"
		},
		{
			"id": 4115,
			"parent": 11329,
			"owner_id": 1087,
			"text": "PCLC PCB Assy Freigabe zur Beschaffung",
			"start_date": "2018-02-22 10:32:11",
			"progress": null,
			"duration": 6.6,
			"sortorder": 36,
			"open": false,
			"DO_MAX_Cost": 0,
			"PO_MAX_Cost": 0,
			"MO_MAX_Cost": 0,
			"MAT_MAX_Cost": 111941,
			"type": "subtask",
			"color": "#c30"
		},
		{
			"id": 4270,
			"parent": 11329,
			"owner_id": 1124,
			"text": "1056.1.1619171-1-32 LÖTEN",
			"start_date": "2018-03-15 14:41:27",
			"progress": null,
			"duration": 31.3,
			"sortorder": 37,
			"open": false,
			"DO_MAX_Cost": 0,
			"PO_MAX_Cost": 0,
			"MO_MAX_Cost": 0,
			"MAT_MAX_Cost": 111941,
			"type": "subtask",
			"color": "#c30"
		},
		{
			"id": 4271,
			"parent": 11329,
			"owner_id": 1115,
			"text": "1056.1.1619171-1-32 RÜSTEN",
			"start_date": "2018-03-15 14:41:43",
			"progress": null,
			"duration": 6.4,
			"sortorder": 38,
			"open": false,
			"DO_MAX_Cost": 0,
			"PO_MAX_Cost": 0,
			"MO_MAX_Cost": 0,
			"MAT_MAX_Cost": 111941,
			"type": "subtask",
			"color": "#c30"
		},
		{
			"id": 4272,
			"parent": 11329,
			"owner_id": 1101,
			"text": "1056.1.1619171-1-32",
			"start_date": "2018-03-15 14:42:52",
			"progress": null,
			"duration": 13.3,
			"sortorder": 39,
			"open": false,
			"DO_MAX_Cost": 0,
			"PO_MAX_Cost": 0,
			"MO_MAX_Cost": 0,
			"MAT_MAX_Cost": 111941,
			"type": "subtask",
			"color": "#c30"
		},
		{
			"id": 4322,
			"parent": 11329,
			"owner_id": 1124,
			"text": "1092.1.1722556-2.1 Produktion",
			"start_date": "2018-03-29 11:26:59",
			"progress": null,
			"duration": 14.5,
			"sortorder": 40,
			"open": false,
			"DO_MAX_Cost": 0,
			"PO_MAX_Cost": 0,
			"MO_MAX_Cost": 0,
			"MAT_MAX_Cost": 111941,
			"type": "subtask",
			"color": "#c30"
		},
		{
			"id": 4344,
			"parent": 11329,
			"owner_id": 1115,
			"text": "1092.1.1722556-2.1",
			"start_date": "2018-04-05 08:49:04",
			"progress": null,
			"duration": 6.6,
			"sortorder": 41,
			"open": false,
			"DO_MAX_Cost": 0,
			"PO_MAX_Cost": 0,
			"MO_MAX_Cost": 0,
			"MAT_MAX_Cost": 111941,
			"type": "subtask",
			"color": "#c30"
		},
		{
			"id": 11329,
			"parent": 618,
			"text": "Electrical installation for Aerolite 6 Stk. EMS Kit -V3",
			"owner_id": 1124,
			"start_date": "2018-03-22 00:00:00",
			"progress": 1,
			"duration": 219,
			"sortorder": 42,
			"open": false,
			"DO_MAX_Cost": 0,
			"PO_MAX_Cost": 0,
			"MO_MAX_Cost": 0,
			"MAT_MAX_Cost": 111941,
			"type": "task"
		},
		{
			"id": 3852,
			"parent": 11329,
			"owner_id": 1072,
			"text": "909.1.1313849.38.1",
			"start_date": "2017-12-18 11:20:20",
			"progress": null,
			"duration": 2.5,
			"sortorder": 43,
			"open": false,
			"DO_MAX_Cost": 0,
			"PO_MAX_Cost": 0,
			"MO_MAX_Cost": 0,
			"MAT_MAX_Cost": 111941,
			"type": "subtask",
			"color": "#c30"
		},
		{
			"id": 4113,
			"parent": 11329,
			"owner_id": 1115,
			"text": "2 Kits rüsten und auf LS buchen.",
			"start_date": "2018-02-22 10:30:50",
			"progress": null,
			"duration": 5.6,
			"sortorder": 44,
			"open": false,
			"DO_MAX_Cost": 0,
			"PO_MAX_Cost": 0,
			"MO_MAX_Cost": 0,
			"MAT_MAX_Cost": 111941,
			"type": "subtask",
			"color": "#c30"
		},
		{
			"id": 4114,
			"parent": 11329,
			"owner_id": 1029,
			"text": "Beschaffung 1033018.17.2 20Stück. 12.03.2018 bei KUAV",
			"start_date": "2018-02-22 10:31:13",
			"progress": null,
			"duration": 0.6,
			"sortorder": 45,
			"open": false,
			"DO_MAX_Cost": 0,
			"PO_MAX_Cost": 0,
			"MO_MAX_Cost": 0,
			"MAT_MAX_Cost": 111941,
			"type": "subtask",
			"color": "#c30"
		},
		{
			"id": 4115,
			"parent": 11329,
			"owner_id": 1087,
			"text": "PCLC PCB Assy Freigabe zur Beschaffung",
			"start_date": "2018-02-22 10:32:11",
			"progress": null,
			"duration": 6.6,
			"sortorder": 46,
			"open": false,
			"DO_MAX_Cost": 0,
			"PO_MAX_Cost": 0,
			"MO_MAX_Cost": 0,
			"MAT_MAX_Cost": 111941,
			"type": "subtask",
			"color": "#c30"
		},
		{
			"id": 4270,
			"parent": 11329,
			"owner_id": 1124,
			"text": "1056.1.1619171-1-32 LÖTEN",
			"start_date": "2018-03-15 14:41:27",
			"progress": null,
			"duration": 31.3,
			"sortorder": 47,
			"open": false,
			"DO_MAX_Cost": 0,
			"PO_MAX_Cost": 0,
			"MO_MAX_Cost": 0,
			"MAT_MAX_Cost": 111941,
			"type": "subtask",
			"color": "#c30"
		},
		{
			"id": 4271,
			"parent": 11329,
			"owner_id": 1115,
			"text": "1056.1.1619171-1-32 RÜSTEN",
			"start_date": "2018-03-15 14:41:43",
			"progress": null,
			"duration": 6.4,
			"sortorder": 48,
			"open": false,
			"DO_MAX_Cost": 0,
			"PO_MAX_Cost": 0,
			"MO_MAX_Cost": 0,
			"MAT_MAX_Cost": 111941,
			"type": "subtask",
			"color": "#c30"
		},
		{
			"id": 4272,
			"parent": 11329,
			"owner_id": 1101,
			"text": "1056.1.1619171-1-32",
			"start_date": "2018-03-15 14:42:52",
			"progress": null,
			"duration": 13.3,
			"sortorder": 49,
			"open": false,
			"DO_MAX_Cost": 0,
			"PO_MAX_Cost": 0,
			"MO_MAX_Cost": 0,
			"MAT_MAX_Cost": 111941,
			"type": "subtask",
			"color": "#c30"
		},
		{
			"id": 4322,
			"parent": 11329,
			"owner_id": 1124,
			"text": "1092.1.1722556-2.1 Produktion",
			"start_date": "2018-03-29 11:26:59",
			"progress": null,
			"duration": 14.5,
			"sortorder": 50,
			"open": false,
			"DO_MAX_Cost": 0,
			"PO_MAX_Cost": 0,
			"MO_MAX_Cost": 0,
			"MAT_MAX_Cost": 111941,
			"type": "subtask",
			"color": "#c30"
		},
		{
			"id": 4344,
			"parent": 11329,
			"owner_id": 1115,
			"text": "1092.1.1722556-2.1",
			"start_date": "2018-04-05 08:49:04",
			"progress": null,
			"duration": 6.6,
			"sortorder": 51,
			"open": false,
			"DO_MAX_Cost": 0,
			"PO_MAX_Cost": 0,
			"MO_MAX_Cost": 0,
			"MAT_MAX_Cost": 111941,
			"type": "subtask",
			"color": "#c30"
		},
		{
			"id": 11329,
			"parent": 618,
			"text": "Electrical installation for Aerolite 6 Stk. EMS Kit -V3",
			"owner_id": 1115,
			"start_date": "2018-03-22 00:00:00",
			"progress": 1,
			"duration": 219,
			"sortorder": 52,
			"open": false,
			"DO_MAX_Cost": 0,
			"PO_MAX_Cost": 0,
			"MO_MAX_Cost": 0,
			"MAT_MAX_Cost": 111941,
			"type": "task"
		},
		{
			"id": 3852,
			"parent": 11329,
			"owner_id": 1072,
			"text": "909.1.1313849.38.1",
			"start_date": "2017-12-18 11:20:20",
			"progress": null,
			"duration": 2.5,
			"sortorder": 53,
			"open": false,
			"DO_MAX_Cost": 0,
			"PO_MAX_Cost": 0,
			"MO_MAX_Cost": 0,
			"MAT_MAX_Cost": 111941,
			"type": "subtask",
			"color": "#c30"
		},
		{
			"id": 4113,
			"parent": 11329,
			"owner_id": 1115,
			"text": "2 Kits rüsten und auf LS buchen.",
			"start_date": "2018-02-22 10:30:50",
			"progress": null,
			"duration": 5.6,
			"sortorder": 54,
			"open": false,
			"DO_MAX_Cost": 0,
			"PO_MAX_Cost": 0,
			"MO_MAX_Cost": 0,
			"MAT_MAX_Cost": 111941,
			"type": "subtask",
			"color": "#c30"
		},
		{
			"id": 4114,
			"parent": 11329,
			"owner_id": 1029,
			"text": "Beschaffung 1033018.17.2 20Stück. 12.03.2018 bei KUAV",
			"start_date": "2018-02-22 10:31:13",
			"progress": null,
			"duration": 0.6,
			"sortorder": 55,
			"open": false,
			"DO_MAX_Cost": 0,
			"PO_MAX_Cost": 0,
			"MO_MAX_Cost": 0,
			"MAT_MAX_Cost": 111941,
			"type": "subtask",
			"color": "#c30"
		},
		{
			"id": 4115,
			"parent": 11329,
			"owner_id": 1087,
			"text": "PCLC PCB Assy Freigabe zur Beschaffung",
			"start_date": "2018-02-22 10:32:11",
			"progress": null,
			"duration": 6.6,
			"sortorder": 56,
			"open": false,
			"DO_MAX_Cost": 0,
			"PO_MAX_Cost": 0,
			"MO_MAX_Cost": 0,
			"MAT_MAX_Cost": 111941,
			"type": "subtask",
			"color": "#c30"
		},
		{
			"id": 4270,
			"parent": 11329,
			"owner_id": 1124,
			"text": "1056.1.1619171-1-32 LÖTEN",
			"start_date": "2018-03-15 14:41:27",
			"progress": null,
			"duration": 31.3,
			"sortorder": 57,
			"open": false,
			"DO_MAX_Cost": 0,
			"PO_MAX_Cost": 0,
			"MO_MAX_Cost": 0,
			"MAT_MAX_Cost": 111941,
			"type": "subtask",
			"color": "#c30"
		},
		{
			"id": 4271,
			"parent": 11329,
			"owner_id": 1115,
			"text": "1056.1.1619171-1-32 RÜSTEN",
			"start_date": "2018-03-15 14:41:43",
			"progress": null,
			"duration": 6.4,
			"sortorder": 58,
			"open": false,
			"DO_MAX_Cost": 0,
			"PO_MAX_Cost": 0,
			"MO_MAX_Cost": 0,
			"MAT_MAX_Cost": 111941,
			"type": "subtask",
			"color": "#c30"
		},
		{
			"id": 4272,
			"parent": 11329,
			"owner_id": 1101,
			"text": "1056.1.1619171-1-32",
			"start_date": "2018-03-15 14:42:52",
			"progress": null,
			"duration": 13.3,
			"sortorder": 59,
			"open": false,
			"DO_MAX_Cost": 0,
			"PO_MAX_Cost": 0,
			"MO_MAX_Cost": 0,
			"MAT_MAX_Cost": 111941,
			"type": "subtask",
			"color": "#c30"
		},
		{
			"id": 4322,
			"parent": 11329,
			"owner_id": 1124,
			"text": "1092.1.1722556-2.1 Produktion",
			"start_date": "2018-03-29 11:26:59",
			"progress": null,
			"duration": 14.5,
			"sortorder": 60,
			"open": false,
			"DO_MAX_Cost": 0,
			"PO_MAX_Cost": 0,
			"MO_MAX_Cost": 0,
			"MAT_MAX_Cost": 111941,
			"type": "subtask",
			"color": "#c30"
		},
		{
			"id": 4344,
			"parent": 11329,
			"owner_id": 1115,
			"text": "1092.1.1722556-2.1",
			"start_date": "2018-04-05 08:49:04",
			"progress": null,
			"duration": 6.6,
			"sortorder": 61,
			"open": false,
			"DO_MAX_Cost": 0,
			"PO_MAX_Cost": 0,
			"MO_MAX_Cost": 0,
			"MAT_MAX_Cost": 111941,
			"type": "subtask",
			"color": "#c30"
		},
		{
			"id": 11329,
			"parent": 618,
			"text": "Electrical installation for Aerolite 6 Stk. EMS Kit -V3",
			"owner_id": 1101,
			"start_date": "2018-03-22 00:00:00",
			"progress": 1,
			"duration": 219,
			"sortorder": 62,
			"open": false,
			"DO_MAX_Cost": 0,
			"PO_MAX_Cost": 0,
			"MO_MAX_Cost": 0,
			"MAT_MAX_Cost": 111941,
			"type": "task"
		},
		{
			"id": 3852,
			"parent": 11329,
			"owner_id": 1072,
			"text": "909.1.1313849.38.1",
			"start_date": "2017-12-18 11:20:20",
			"progress": null,
			"duration": 2.5,
			"sortorder": 63,
			"open": false,
			"DO_MAX_Cost": 0,
			"PO_MAX_Cost": 0,
			"MO_MAX_Cost": 0,
			"MAT_MAX_Cost": 111941,
			"type": "subtask",
			"color": "#c30"
		},
		{
			"id": 4113,
			"parent": 11329,
			"owner_id": 1115,
			"text": "2 Kits rüsten und auf LS buchen.",
			"start_date": "2018-02-22 10:30:50",
			"progress": null,
			"duration": 5.6,
			"sortorder": 64,
			"open": false,
			"DO_MAX_Cost": 0,
			"PO_MAX_Cost": 0,
			"MO_MAX_Cost": 0,
			"MAT_MAX_Cost": 111941,
			"type": "subtask",
			"color": "#c30"
		},
		{
			"id": 4114,
			"parent": 11329,
			"owner_id": 1029,
			"text": "Beschaffung 1033018.17.2 20Stück. 12.03.2018 bei KUAV",
			"start_date": "2018-02-22 10:31:13",
			"progress": null,
			"duration": 0.6,
			"sortorder": 65,
			"open": false,
			"DO_MAX_Cost": 0,
			"PO_MAX_Cost": 0,
			"MO_MAX_Cost": 0,
			"MAT_MAX_Cost": 111941,
			"type": "subtask",
			"color": "#c30"
		},
		{
			"id": 4115,
			"parent": 11329,
			"owner_id": 1087,
			"text": "PCLC PCB Assy Freigabe zur Beschaffung",
			"start_date": "2018-02-22 10:32:11",
			"progress": null,
			"duration": 6.6,
			"sortorder": 66,
			"open": false,
			"DO_MAX_Cost": 0,
			"PO_MAX_Cost": 0,
			"MO_MAX_Cost": 0,
			"MAT_MAX_Cost": 111941,
			"type": "subtask",
			"color": "#c30"
		},
		{
			"id": 4270,
			"parent": 11329,
			"owner_id": 1124,
			"text": "1056.1.1619171-1-32 LÖTEN",
			"start_date": "2018-03-15 14:41:27",
			"progress": null,
			"duration": 31.3,
			"sortorder": 67,
			"open": false,
			"DO_MAX_Cost": 0,
			"PO_MAX_Cost": 0,
			"MO_MAX_Cost": 0,
			"MAT_MAX_Cost": 111941,
			"type": "subtask",
			"color": "#c30"
		},
		{
			"id": 4271,
			"parent": 11329,
			"owner_id": 1115,
			"text": "1056.1.1619171-1-32 RÜSTEN",
			"start_date": "2018-03-15 14:41:43",
			"progress": null,
			"duration": 6.4,
			"sortorder": 68,
			"open": false,
			"DO_MAX_Cost": 0,
			"PO_MAX_Cost": 0,
			"MO_MAX_Cost": 0,
			"MAT_MAX_Cost": 111941,
			"type": "subtask",
			"color": "#c30"
		},
		{
			"id": 4272,
			"parent": 11329,
			"owner_id": 1101,
			"text": "1056.1.1619171-1-32",
			"start_date": "2018-03-15 14:42:52",
			"progress": null,
			"duration": 13.3,
			"sortorder": 69,
			"open": false,
			"DO_MAX_Cost": 0,
			"PO_MAX_Cost": 0,
			"MO_MAX_Cost": 0,
			"MAT_MAX_Cost": 111941,
			"type": "subtask",
			"color": "#c30"
		},
		{
			"id": 4322,
			"parent": 11329,
			"owner_id": 1124,
			"text": "1092.1.1722556-2.1 Produktion",
			"start_date": "2018-03-29 11:26:59",
			"progress": null,
			"duration": 14.5,
			"sortorder": 70,
			"open": false,
			"DO_MAX_Cost": 0,
			"PO_MAX_Cost": 0,
			"MO_MAX_Cost": 0,
			"MAT_MAX_Cost": 111941,
			"type": "subtask",
			"color": "#c30"
		},
		{
			"id": 4344,
			"parent": 11329,
			"owner_id": 1115,
			"text": "1092.1.1722556-2.1",
			"start_date": "2018-04-05 08:49:04",
			"progress": null,
			"duration": 6.6,
			"sortorder": 71,
			"open": false,
			"DO_MAX_Cost": 0,
			"PO_MAX_Cost": 0,
			"MO_MAX_Cost": 0,
			"MAT_MAX_Cost": 111941,
			"type": "subtask",
			"color": "#c30"
		},
		{
			"id": 11329,
			"parent": 618,
			"text": "Electrical installation for Aerolite 6 Stk. EMS Kit -V3",
			"owner_id": 1124,
			"start_date": "2018-03-22 00:00:00",
			"progress": 1,
			"duration": 219,
			"sortorder": 72,
			"open": false,
			"DO_MAX_Cost": 0,
			"PO_MAX_Cost": 0,
			"MO_MAX_Cost": 0,
			"MAT_MAX_Cost": 111941,
			"type": "task"
		},
		{
			"id": 3852,
			"parent": 11329,
			"owner_id": 1072,
			"text": "909.1.1313849.38.1",
			"start_date": "2017-12-18 11:20:20",
			"progress": null,
			"duration": 2.5,
			"sortorder": 73,
			"open": false,
			"DO_MAX_Cost": 0,
			"PO_MAX_Cost": 0,
			"MO_MAX_Cost": 0,
			"MAT_MAX_Cost": 111941,
			"type": "subtask",
			"color": "#c30"
		},
		{
			"id": 4113,
			"parent": 11329,
			"owner_id": 1115,
			"text": "2 Kits rüsten und auf LS buchen.",
			"start_date": "2018-02-22 10:30:50",
			"progress": null,
			"duration": 5.6,
			"sortorder": 74,
			"open": false,
			"DO_MAX_Cost": 0,
			"PO_MAX_Cost": 0,
			"MO_MAX_Cost": 0,
			"MAT_MAX_Cost": 111941,
			"type": "subtask",
			"color": "#c30"
		},
		{
			"id": 4114,
			"parent": 11329,
			"owner_id": 1029,
			"text": "Beschaffung 1033018.17.2 20Stück. 12.03.2018 bei KUAV",
			"start_date": "2018-02-22 10:31:13",
			"progress": null,
			"duration": 0.6,
			"sortorder": 75,
			"open": false,
			"DO_MAX_Cost": 0,
			"PO_MAX_Cost": 0,
			"MO_MAX_Cost": 0,
			"MAT_MAX_Cost": 111941,
			"type": "subtask",
			"color": "#c30"
		},
		{
			"id": 4115,
			"parent": 11329,
			"owner_id": 1087,
			"text": "PCLC PCB Assy Freigabe zur Beschaffung",
			"start_date": "2018-02-22 10:32:11",
			"progress": null,
			"duration": 6.6,
			"sortorder": 76,
			"open": false,
			"DO_MAX_Cost": 0,
			"PO_MAX_Cost": 0,
			"MO_MAX_Cost": 0,
			"MAT_MAX_Cost": 111941,
			"type": "subtask",
			"color": "#c30"
		},
		{
			"id": 4270,
			"parent": 11329,
			"owner_id": 1124,
			"text": "1056.1.1619171-1-32 LÖTEN",
			"start_date": "2018-03-15 14:41:27",
			"progress": null,
			"duration": 31.3,
			"sortorder": 77,
			"open": false,
			"DO_MAX_Cost": 0,
			"PO_MAX_Cost": 0,
			"MO_MAX_Cost": 0,
			"MAT_MAX_Cost": 111941,
			"type": "subtask",
			"color": "#c30"
		},
		{
			"id": 4271,
			"parent": 11329,
			"owner_id": 1115,
			"text": "1056.1.1619171-1-32 RÜSTEN",
			"start_date": "2018-03-15 14:41:43",
			"progress": null,
			"duration": 6.4,
			"sortorder": 78,
			"open": false,
			"DO_MAX_Cost": 0,
			"PO_MAX_Cost": 0,
			"MO_MAX_Cost": 0,
			"MAT_MAX_Cost": 111941,
			"type": "subtask",
			"color": "#c30"
		},
		{
			"id": 4272,
			"parent": 11329,
			"owner_id": 1101,
			"text": "1056.1.1619171-1-32",
			"start_date": "2018-03-15 14:42:52",
			"progress": null,
			"duration": 13.3,
			"sortorder": 79,
			"open": false,
			"DO_MAX_Cost": 0,
			"PO_MAX_Cost": 0,
			"MO_MAX_Cost": 0,
			"MAT_MAX_Cost": 111941,
			"type": "subtask",
			"color": "#c30"
		},
		{
			"id": 4322,
			"parent": 11329,
			"owner_id": 1124,
			"text": "1092.1.1722556-2.1 Produktion",
			"start_date": "2018-03-29 11:26:59",
			"progress": null,
			"duration": 14.5,
			"sortorder": 80,
			"open": false,
			"DO_MAX_Cost": 0,
			"PO_MAX_Cost": 0,
			"MO_MAX_Cost": 0,
			"MAT_MAX_Cost": 111941,
			"type": "subtask",
			"color": "#c30"
		},
		{
			"id": 4344,
			"parent": 11329,
			"owner_id": 1115,
			"text": "1092.1.1722556-2.1",
			"start_date": "2018-04-05 08:49:04",
			"progress": null,
			"duration": 6.6,
			"sortorder": 81,
			"open": false,
			"DO_MAX_Cost": 0,
			"PO_MAX_Cost": 0,
			"MO_MAX_Cost": 0,
			"MAT_MAX_Cost": 111941,
			"type": "subtask",
			"color": "#c30"
		},
		{
			"id": 11329,
			"parent": 618,
			"text": "Electrical installation for Aerolite 6 Stk. EMS Kit -V3",
			"owner_id": 1115,
			"start_date": "2018-03-22 00:00:00",
			"progress": 1,
			"duration": 219,
			"sortorder": 82,
			"open": false,
			"DO_MAX_Cost": 0,
			"PO_MAX_Cost": 0,
			"MO_MAX_Cost": 0,
			"MAT_MAX_Cost": 111941,
			"type": "task"
		},
		{
			"id": 3852,
			"parent": 11329,
			"owner_id": 1072,
			"text": "909.1.1313849.38.1",
			"start_date": "2017-12-18 11:20:20",
			"progress": null,
			"duration": 2.5,
			"sortorder": 83,
			"open": false,
			"DO_MAX_Cost": 0,
			"PO_MAX_Cost": 0,
			"MO_MAX_Cost": 0,
			"MAT_MAX_Cost": 111941,
			"type": "subtask",
			"color": "#c30"
		},
		{
			"id": 4113,
			"parent": 11329,
			"owner_id": 1115,
			"text": "2 Kits rüsten und auf LS buchen.",
			"start_date": "2018-02-22 10:30:50",
			"progress": null,
			"duration": 5.6,
			"sortorder": 84,
			"open": false,
			"DO_MAX_Cost": 0,
			"PO_MAX_Cost": 0,
			"MO_MAX_Cost": 0,
			"MAT_MAX_Cost": 111941,
			"type": "subtask",
			"color": "#c30"
		},
		{
			"id": 4114,
			"parent": 11329,
			"owner_id": 1029,
			"text": "Beschaffung 1033018.17.2 20Stück. 12.03.2018 bei KUAV",
			"start_date": "2018-02-22 10:31:13",
			"progress": null,
			"duration": 0.6,
			"sortorder": 85,
			"open": false,
			"DO_MAX_Cost": 0,
			"PO_MAX_Cost": 0,
			"MO_MAX_Cost": 0,
			"MAT_MAX_Cost": 111941,
			"type": "subtask",
			"color": "#c30"
		},
		{
			"id": 4115,
			"parent": 11329,
			"owner_id": 1087,
			"text": "PCLC PCB Assy Freigabe zur Beschaffung",
			"start_date": "2018-02-22 10:32:11",
			"progress": null,
			"duration": 6.6,
			"sortorder": 86,
			"open": false,
			"DO_MAX_Cost": 0,
			"PO_MAX_Cost": 0,
			"MO_MAX_Cost": 0,
			"MAT_MAX_Cost": 111941,
			"type": "subtask",
			"color": "#c30"
		},
		{
			"id": 4270,
			"parent": 11329,
			"owner_id": 1124,
			"text": "1056.1.1619171-1-32 LÖTEN",
			"start_date": "2018-03-15 14:41:27",
			"progress": null,
			"duration": 31.3,
			"sortorder": 87,
			"open": false,
			"DO_MAX_Cost": 0,
			"PO_MAX_Cost": 0,
			"MO_MAX_Cost": 0,
			"MAT_MAX_Cost": 111941,
			"type": "subtask",
			"color": "#c30"
		},
		{
			"id": 4271,
			"parent": 11329,
			"owner_id": 1115,
			"text": "1056.1.1619171-1-32 RÜSTEN",
			"start_date": "2018-03-15 14:41:43",
			"progress": null,
			"duration": 6.4,
			"sortorder": 88,
			"open": false,
			"DO_MAX_Cost": 0,
			"PO_MAX_Cost": 0,
			"MO_MAX_Cost": 0,
			"MAT_MAX_Cost": 111941,
			"type": "subtask",
			"color": "#c30"
		},
		{
			"id": 4272,
			"parent": 11329,
			"owner_id": 1101,
			"text": "1056.1.1619171-1-32",
			"start_date": "2018-03-15 14:42:52",
			"progress": null,
			"duration": 13.3,
			"sortorder": 89,
			"open": false,
			"DO_MAX_Cost": 0,
			"PO_MAX_Cost": 0,
			"MO_MAX_Cost": 0,
			"MAT_MAX_Cost": 111941,
			"type": "subtask",
			"color": "#c30"
		},
		{
			"id": 4322,
			"parent": 11329,
			"owner_id": 1124,
			"text": "1092.1.1722556-2.1 Produktion",
			"start_date": "2018-03-29 11:26:59",
			"progress": null,
			"duration": 14.5,
			"sortorder": 90,
			"open": false,
			"DO_MAX_Cost": 0,
			"PO_MAX_Cost": 0,
			"MO_MAX_Cost": 0,
			"MAT_MAX_Cost": 111941,
			"type": "subtask",
			"color": "#c30"
		},
		{
			"id": 4344,
			"parent": 11329,
			"owner_id": 1115,
			"text": "1092.1.1722556-2.1",
			"start_date": "2018-04-05 08:49:04",
			"progress": null,
			"duration": 6.6,
			"sortorder": 91,
			"open": false,
			"DO_MAX_Cost": 0,
			"PO_MAX_Cost": 0,
			"MO_MAX_Cost": 0,
			"MAT_MAX_Cost": 111941,
			"type": "subtask",
			"color": "#c30"
		},
		{
			"id": 11528,
			"parent": 618,
			"text": "1 each KMI101, 2 each KMI102",
			"owner_id": 1124,
			"start_date": "2018-05-14 00:00:00",
			"progress": 1,
			"duration": 130,
			"sortorder": 92,
			"open": false,
			"DO_MAX_Cost": 0,
			"PO_MAX_Cost": 29,
			"MO_MAX_Cost": 0,
			"MAT_MAX_Cost": 8727,
			"type": "task"
		},
		{
			"id": 4323,
			"parent": 11528,
			"owner_id": 1124,
			"text": "1087.1.1212951.3 2Stück Produktion",
			"start_date": "2018-03-29 11:48:00",
			"progress": null,
			"duration": 168.5,
			"sortorder": 93,
			"open": false,
			"DO_MAX_Cost": 0,
			"PO_MAX_Cost": 29,
			"MO_MAX_Cost": 0,
			"MAT_MAX_Cost": 8727,
			"type": "subtask",
			"color": "#c30"
		},
		{
			"id": 4324,
			"parent": 11528,
			"owner_id": 1101,
			"text": "1087.1.1212951.3 AVOR",
			"start_date": "2018-03-29 11:48:16",
			"progress": null,
			"duration": 62.5,
			"sortorder": 94,
			"open": false,
			"DO_MAX_Cost": 0,
			"PO_MAX_Cost": 29,
			"MO_MAX_Cost": 0,
			"MAT_MAX_Cost": 8727,
			"type": "subtask",
			"color": "#c30"
		},
		{
			"id": 4325,
			"parent": 11528,
			"owner_id": 1124,
			"text": "1083.1.1212951.2 PRODUKTION",
			"start_date": "2018-03-29 11:49:20",
			"progress": null,
			"duration": 161.5,
			"sortorder": 95,
			"open": false,
			"DO_MAX_Cost": 0,
			"PO_MAX_Cost": 29,
			"MO_MAX_Cost": 0,
			"MAT_MAX_Cost": 8727,
			"type": "subtask",
			"color": "#c30"
		},
		{
			"id": 4326,
			"parent": 11528,
			"owner_id": 1101,
			"text": "1083.1.1212951.2 AVOR",
			"start_date": "2018-03-29 11:49:38",
			"progress": null,
			"duration": 62.5,
			"sortorder": 96,
			"open": false,
			"DO_MAX_Cost": 0,
			"PO_MAX_Cost": 29,
			"MO_MAX_Cost": 0,
			"MAT_MAX_Cost": 8727,
			"type": "subtask",
			"color": "#c30"
		},
		{
			"id": 4330,
			"parent": 11528,
			"owner_id": 1124,
			"text": "1087.1.1212951.3.1.8001001",
			"start_date": "2018-04-04 07:19:13",
			"progress": null,
			"duration": 148.7,
			"sortorder": 97,
			"open": false,
			"DO_MAX_Cost": 0,
			"PO_MAX_Cost": 29,
			"MO_MAX_Cost": 0,
			"MAT_MAX_Cost": 8727,
			"type": "subtask",
			"color": "#c30"
		},
		{
			"id": 4331,
			"parent": 11528,
			"owner_id": 1124,
			"text": "1083.1.1212951.2.1.8001001",
			"start_date": "2018-04-04 07:20:02",
			"progress": null,
			"duration": 56.7,
			"sortorder": 98,
			"open": false,
			"DO_MAX_Cost": 0,
			"PO_MAX_Cost": 29,
			"MO_MAX_Cost": 0,
			"MAT_MAX_Cost": 8727,
			"type": "subtask",
			"color": "#c30"
		},
		{
			"id": 4422,
			"parent": 11528,
			"owner_id": 1115,
			"text": "1083.1.1212951.2 RÜSTEN",
			"start_date": "2018-04-24 07:34:57",
			"progress": null,
			"duration": 16.7,
			"sortorder": 99,
			"open": false,
			"DO_MAX_Cost": 0,
			"PO_MAX_Cost": 29,
			"MO_MAX_Cost": 0,
			"MAT_MAX_Cost": 8727,
			"type": "subtask",
			"color": "#c30"
		},
		{
			"id": 4423,
			"parent": 11528,
			"owner_id": 1115,
			"text": "1087.1.1212951.3 RÜSTEN",
			"start_date": "2018-04-24 07:36:36",
			"progress": null,
			"duration": 21.7,
			"sortorder": 100,
			"open": false,
			"DO_MAX_Cost": 0,
			"PO_MAX_Cost": 29,
			"MO_MAX_Cost": 0,
			"MAT_MAX_Cost": 8727,
			"type": "subtask",
			"color": "#c30"
		},
		{
			"id": 11528,
			"parent": 618,
			"text": "1 each KMI101, 2 each KMI102",
			"owner_id": 1101,
			"start_date": "2018-05-14 00:00:00",
			"progress": 1,
			"duration": 130,
			"sortorder": 101,
			"open": false,
			"DO_MAX_Cost": 0,
			"PO_MAX_Cost": 29,
			"MO_MAX_Cost": 0,
			"MAT_MAX_Cost": 8727,
			"type": "task"
		},
		{
			"id": 4323,
			"parent": 11528,
			"owner_id": 1124,
			"text": "1087.1.1212951.3 2Stück Produktion",
			"start_date": "2018-03-29 11:48:00",
			"progress": null,
			"duration": 168.5,
			"sortorder": 102,
			"open": false,
			"DO_MAX_Cost": 0,
			"PO_MAX_Cost": 29,
			"MO_MAX_Cost": 0,
			"MAT_MAX_Cost": 8727,
			"type": "subtask",
			"color": "#c30"
		},
		{
			"id": 4324,
			"parent": 11528,
			"owner_id": 1101,
			"text": "1087.1.1212951.3 AVOR",
			"start_date": "2018-03-29 11:48:16",
			"progress": null,
			"duration": 62.5,
			"sortorder": 103,
			"open": false,
			"DO_MAX_Cost": 0,
			"PO_MAX_Cost": 29,
			"MO_MAX_Cost": 0,
			"MAT_MAX_Cost": 8727,
			"type": "subtask",
			"color": "#c30"
		},
		{
			"id": 4325,
			"parent": 11528,
			"owner_id": 1124,
			"text": "1083.1.1212951.2 PRODUKTION",
			"start_date": "2018-03-29 11:49:20",
			"progress": null,
			"duration": 161.5,
			"sortorder": 104,
			"open": false,
			"DO_MAX_Cost": 0,
			"PO_MAX_Cost": 29,
			"MO_MAX_Cost": 0,
			"MAT_MAX_Cost": 8727,
			"type": "subtask",
			"color": "#c30"
		},
		{
			"id": 4326,
			"parent": 11528,
			"owner_id": 1101,
			"text": "1083.1.1212951.2 AVOR",
			"start_date": "2018-03-29 11:49:38",
			"progress": null,
			"duration": 62.5,
			"sortorder": 105,
			"open": false,
			"DO_MAX_Cost": 0,
			"PO_MAX_Cost": 29,
			"MO_MAX_Cost": 0,
			"MAT_MAX_Cost": 8727,
			"type": "subtask",
			"color": "#c30"
		},
		{
			"id": 4330,
			"parent": 11528,
			"owner_id": 1124,
			"text": "1087.1.1212951.3.1.8001001",
			"start_date": "2018-04-04 07:19:13",
			"progress": null,
			"duration": 148.7,
			"sortorder": 106,
			"open": false,
			"DO_MAX_Cost": 0,
			"PO_MAX_Cost": 29,
			"MO_MAX_Cost": 0,
			"MAT_MAX_Cost": 8727,
			"type": "subtask",
			"color": "#c30"
		},
		{
			"id": 4331,
			"parent": 11528,
			"owner_id": 1124,
			"text": "1083.1.1212951.2.1.8001001",
			"start_date": "2018-04-04 07:20:02",
			"progress": null,
			"duration": 56.7,
			"sortorder": 107,
			"open": false,
			"DO_MAX_Cost": 0,
			"PO_MAX_Cost": 29,
			"MO_MAX_Cost": 0,
			"MAT_MAX_Cost": 8727,
			"type": "subtask",
			"color": "#c30"
		},
		{
			"id": 4422,
			"parent": 11528,
			"owner_id": 1115,
			"text": "1083.1.1212951.2 RÜSTEN",
			"start_date": "2018-04-24 07:34:57",
			"progress": null,
			"duration": 16.7,
			"sortorder": 108,
			"open": false,
			"DO_MAX_Cost": 0,
			"PO_MAX_Cost": 29,
			"MO_MAX_Cost": 0,
			"MAT_MAX_Cost": 8727,
			"type": "subtask",
			"color": "#c30"
		},
		{
			"id": 4423,
			"parent": 11528,
			"owner_id": 1115,
			"text": "1087.1.1212951.3 RÜSTEN",
			"start_date": "2018-04-24 07:36:36",
			"progress": null,
			"duration": 21.7,
			"sortorder": 109,
			"open": false,
			"DO_MAX_Cost": 0,
			"PO_MAX_Cost": 29,
			"MO_MAX_Cost": 0,
			"MAT_MAX_Cost": 8727,
			"type": "subtask",
			"color": "#c30"
		},
		{
			"id": 11528,
			"parent": 618,
			"text": "1 each KMI101, 2 each KMI102",
			"owner_id": 1124,
			"start_date": "2018-05-14 00:00:00",
			"progress": 1,
			"duration": 130,
			"sortorder": 110,
			"open": false,
			"DO_MAX_Cost": 0,
			"PO_MAX_Cost": 29,
			"MO_MAX_Cost": 0,
			"MAT_MAX_Cost": 8727,
			"type": "task"
		},
		{
			"id": 4323,
			"parent": 11528,
			"owner_id": 1124,
			"text": "1087.1.1212951.3 2Stück Produktion",
			"start_date": "2018-03-29 11:48:00",
			"progress": null,
			"duration": 168.5,
			"sortorder": 111,
			"open": false,
			"DO_MAX_Cost": 0,
			"PO_MAX_Cost": 29,
			"MO_MAX_Cost": 0,
			"MAT_MAX_Cost": 8727,
			"type": "subtask",
			"color": "#c30"
		},
		{
			"id": 4324,
			"parent": 11528,
			"owner_id": 1101,
			"text": "1087.1.1212951.3 AVOR",
			"start_date": "2018-03-29 11:48:16",
			"progress": null,
			"duration": 62.5,
			"sortorder": 112,
			"open": false,
			"DO_MAX_Cost": 0,
			"PO_MAX_Cost": 29,
			"MO_MAX_Cost": 0,
			"MAT_MAX_Cost": 8727,
			"type": "subtask",
			"color": "#c30"
		},
		{
			"id": 4325,
			"parent": 11528,
			"owner_id": 1124,
			"text": "1083.1.1212951.2 PRODUKTION",
			"start_date": "2018-03-29 11:49:20",
			"progress": null,
			"duration": 161.5,
			"sortorder": 113,
			"open": false,
			"DO_MAX_Cost": 0,
			"PO_MAX_Cost": 29,
			"MO_MAX_Cost": 0,
			"MAT_MAX_Cost": 8727,
			"type": "subtask",
			"color": "#c30"
		},
		{
			"id": 4326,
			"parent": 11528,
			"owner_id": 1101,
			"text": "1083.1.1212951.2 AVOR",
			"start_date": "2018-03-29 11:49:38",
			"progress": null,
			"duration": 62.5,
			"sortorder": 114,
			"open": false,
			"DO_MAX_Cost": 0,
			"PO_MAX_Cost": 29,
			"MO_MAX_Cost": 0,
			"MAT_MAX_Cost": 8727,
			"type": "subtask",
			"color": "#c30"
		},
		{
			"id": 4330,
			"parent": 11528,
			"owner_id": 1124,
			"text": "1087.1.1212951.3.1.8001001",
			"start_date": "2018-04-04 07:19:13",
			"progress": null,
			"duration": 148.7,
			"sortorder": 115,
			"open": false,
			"DO_MAX_Cost": 0,
			"PO_MAX_Cost": 29,
			"MO_MAX_Cost": 0,
			"MAT_MAX_Cost": 8727,
			"type": "subtask",
			"color": "#c30"
		},
		{
			"id": 4331,
			"parent": 11528,
			"owner_id": 1124,
			"text": "1083.1.1212951.2.1.8001001",
			"start_date": "2018-04-04 07:20:02",
			"progress": null,
			"duration": 56.7,
			"sortorder": 116,
			"open": false,
			"DO_MAX_Cost": 0,
			"PO_MAX_Cost": 29,
			"MO_MAX_Cost": 0,
			"MAT_MAX_Cost": 8727,
			"type": "subtask",
			"color": "#c30"
		},
		{
			"id": 4422,
			"parent": 11528,
			"owner_id": 1115,
			"text": "1083.1.1212951.2 RÜSTEN",
			"start_date": "2018-04-24 07:34:57",
			"progress": null,
			"duration": 16.7,
			"sortorder": 117,
			"open": false,
			"DO_MAX_Cost": 0,
			"PO_MAX_Cost": 29,
			"MO_MAX_Cost": 0,
			"MAT_MAX_Cost": 8727,
			"type": "subtask",
			"color": "#c30"
		},
		{
			"id": 4423,
			"parent": 11528,
			"owner_id": 1115,
			"text": "1087.1.1212951.3 RÜSTEN",
			"start_date": "2018-04-24 07:36:36",
			"progress": null,
			"duration": 21.7,
			"sortorder": 118,
			"open": false,
			"DO_MAX_Cost": 0,
			"PO_MAX_Cost": 29,
			"MO_MAX_Cost": 0,
			"MAT_MAX_Cost": 8727,
			"type": "subtask",
			"color": "#c30"
		},
		{
			"id": 11528,
			"parent": 618,
			"text": "1 each KMI101, 2 each KMI102",
			"owner_id": 1101,
			"start_date": "2018-05-14 00:00:00",
			"progress": 1,
			"duration": 130,
			"sortorder": 119,
			"open": false,
			"DO_MAX_Cost": 0,
			"PO_MAX_Cost": 29,
			"MO_MAX_Cost": 0,
			"MAT_MAX_Cost": 8727,
			"type": "task"
		},
		{
			"id": 4323,
			"parent": 11528,
			"owner_id": 1124,
			"text": "1087.1.1212951.3 2Stück Produktion",
			"start_date": "2018-03-29 11:48:00",
			"progress": null,
			"duration": 168.5,
			"sortorder": 120,
			"open": false,
			"DO_MAX_Cost": 0,
			"PO_MAX_Cost": 29,
			"MO_MAX_Cost": 0,
			"MAT_MAX_Cost": 8727,
			"type": "subtask",
			"color": "#c30"
		},
		{
			"id": 4324,
			"parent": 11528,
			"owner_id": 1101,
			"text": "1087.1.1212951.3 AVOR",
			"start_date": "2018-03-29 11:48:16",
			"progress": null,
			"duration": 62.5,
			"sortorder": 121,
			"open": false,
			"DO_MAX_Cost": 0,
			"PO_MAX_Cost": 29,
			"MO_MAX_Cost": 0,
			"MAT_MAX_Cost": 8727,
			"type": "subtask",
			"color": "#c30"
		},
		{
			"id": 4325,
			"parent": 11528,
			"owner_id": 1124,
			"text": "1083.1.1212951.2 PRODUKTION",
			"start_date": "2018-03-29 11:49:20",
			"progress": null,
			"duration": 161.5,
			"sortorder": 122,
			"open": false,
			"DO_MAX_Cost": 0,
			"PO_MAX_Cost": 29,
			"MO_MAX_Cost": 0,
			"MAT_MAX_Cost": 8727,
			"type": "subtask",
			"color": "#c30"
		},
		{
			"id": 4326,
			"parent": 11528,
			"owner_id": 1101,
			"text": "1083.1.1212951.2 AVOR",
			"start_date": "2018-03-29 11:49:38",
			"progress": null,
			"duration": 62.5,
			"sortorder": 123,
			"open": false,
			"DO_MAX_Cost": 0,
			"PO_MAX_Cost": 29,
			"MO_MAX_Cost": 0,
			"MAT_MAX_Cost": 8727,
			"type": "subtask",
			"color": "#c30"
		},
		{
			"id": 4330,
			"parent": 11528,
			"owner_id": 1124,
			"text": "1087.1.1212951.3.1.8001001",
			"start_date": "2018-04-04 07:19:13",
			"progress": null,
			"duration": 148.7,
			"sortorder": 124,
			"open": false,
			"DO_MAX_Cost": 0,
			"PO_MAX_Cost": 29,
			"MO_MAX_Cost": 0,
			"MAT_MAX_Cost": 8727,
			"type": "subtask",
			"color": "#c30"
		},
		{
			"id": 4331,
			"parent": 11528,
			"owner_id": 1124,
			"text": "1083.1.1212951.2.1.8001001",
			"start_date": "2018-04-04 07:20:02",
			"progress": null,
			"duration": 56.7,
			"sortorder": 125,
			"open": false,
			"DO_MAX_Cost": 0,
			"PO_MAX_Cost": 29,
			"MO_MAX_Cost": 0,
			"MAT_MAX_Cost": 8727,
			"type": "subtask",
			"color": "#c30"
		},
		{
			"id": 4422,
			"parent": 11528,
			"owner_id": 1115,
			"text": "1083.1.1212951.2 RÜSTEN",
			"start_date": "2018-04-24 07:34:57",
			"progress": null,
			"duration": 16.7,
			"sortorder": 126,
			"open": false,
			"DO_MAX_Cost": 0,
			"PO_MAX_Cost": 29,
			"MO_MAX_Cost": 0,
			"MAT_MAX_Cost": 8727,
			"type": "subtask",
			"color": "#c30"
		},
		{
			"id": 4423,
			"parent": 11528,
			"owner_id": 1115,
			"text": "1087.1.1212951.3 RÜSTEN",
			"start_date": "2018-04-24 07:36:36",
			"progress": null,
			"duration": 21.7,
			"sortorder": 127,
			"open": false,
			"DO_MAX_Cost": 0,
			"PO_MAX_Cost": 29,
			"MO_MAX_Cost": 0,
			"MAT_MAX_Cost": 8727,
			"type": "subtask",
			"color": "#c30"
		},
		{
			"id": 11528,
			"parent": 618,
			"text": "1 each KMI101, 2 each KMI102",
			"owner_id": 1124,
			"start_date": "2018-05-14 00:00:00",
			"progress": 1,
			"duration": 130,
			"sortorder": 128,
			"open": false,
			"DO_MAX_Cost": 0,
			"PO_MAX_Cost": 29,
			"MO_MAX_Cost": 0,
			"MAT_MAX_Cost": 8727,
			"type": "task"
		},
		{
			"id": 4323,
			"parent": 11528,
			"owner_id": 1124,
			"text": "1087.1.1212951.3 2Stück Produktion",
			"start_date": "2018-03-29 11:48:00",
			"progress": null,
			"duration": 168.5,
			"sortorder": 129,
			"open": false,
			"DO_MAX_Cost": 0,
			"PO_MAX_Cost": 29,
			"MO_MAX_Cost": 0,
			"MAT_MAX_Cost": 8727,
			"type": "subtask",
			"color": "#c30"
		},
		{
			"id": 4324,
			"parent": 11528,
			"owner_id": 1101,
			"text": "1087.1.1212951.3 AVOR",
			"start_date": "2018-03-29 11:48:16",
			"progress": null,
			"duration": 62.5,
			"sortorder": 130,
			"open": false,
			"DO_MAX_Cost": 0,
			"PO_MAX_Cost": 29,
			"MO_MAX_Cost": 0,
			"MAT_MAX_Cost": 8727,
			"type": "subtask",
			"color": "#c30"
		},
		{
			"id": 4325,
			"parent": 11528,
			"owner_id": 1124,
			"text": "1083.1.1212951.2 PRODUKTION",
			"start_date": "2018-03-29 11:49:20",
			"progress": null,
			"duration": 161.5,
			"sortorder": 131,
			"open": false,
			"DO_MAX_Cost": 0,
			"PO_MAX_Cost": 29,
			"MO_MAX_Cost": 0,
			"MAT_MAX_Cost": 8727,
			"type": "subtask",
			"color": "#c30"
		},
		{
			"id": 4326,
			"parent": 11528,
			"owner_id": 1101,
			"text": "1083.1.1212951.2 AVOR",
			"start_date": "2018-03-29 11:49:38",
			"progress": null,
			"duration": 62.5,
			"sortorder": 132,
			"open": false,
			"DO_MAX_Cost": 0,
			"PO_MAX_Cost": 29,
			"MO_MAX_Cost": 0,
			"MAT_MAX_Cost": 8727,
			"type": "subtask",
			"color": "#c30"
		},
		{
			"id": 4330,
			"parent": 11528,
			"owner_id": 1124,
			"text": "1087.1.1212951.3.1.8001001",
			"start_date": "2018-04-04 07:19:13",
			"progress": null,
			"duration": 148.7,
			"sortorder": 133,
			"open": false,
			"DO_MAX_Cost": 0,
			"PO_MAX_Cost": 29,
			"MO_MAX_Cost": 0,
			"MAT_MAX_Cost": 8727,
			"type": "subtask",
			"color": "#c30"
		},
		{
			"id": 4331,
			"parent": 11528,
			"owner_id": 1124,
			"text": "1083.1.1212951.2.1.8001001",
			"start_date": "2018-04-04 07:20:02",
			"progress": null,
			"duration": 56.7,
			"sortorder": 134,
			"open": false,
			"DO_MAX_Cost": 0,
			"PO_MAX_Cost": 29,
			"MO_MAX_Cost": 0,
			"MAT_MAX_Cost": 8727,
			"type": "subtask",
			"color": "#c30"
		},
		{
			"id": 4422,
			"parent": 11528,
			"owner_id": 1115,
			"text": "1083.1.1212951.2 RÜSTEN",
			"start_date": "2018-04-24 07:34:57",
			"progress": null,
			"duration": 16.7,
			"sortorder": 135,
			"open": false,
			"DO_MAX_Cost": 0,
			"PO_MAX_Cost": 29,
			"MO_MAX_Cost": 0,
			"MAT_MAX_Cost": 8727,
			"type": "subtask",
			"color": "#c30"
		},
		{
			"id": 4423,
			"parent": 11528,
			"owner_id": 1115,
			"text": "1087.1.1212951.3 RÜSTEN",
			"start_date": "2018-04-24 07:36:36",
			"progress": null,
			"duration": 21.7,
			"sortorder": 136,
			"open": false,
			"DO_MAX_Cost": 0,
			"PO_MAX_Cost": 29,
			"MO_MAX_Cost": 0,
			"MAT_MAX_Cost": 8727,
			"type": "subtask",
			"color": "#c30"
		},
		{
			"id": 11528,
			"parent": 618,
			"text": "1 each KMI101, 2 each KMI102",
			"owner_id": 1124,
			"start_date": "2018-05-14 00:00:00",
			"progress": 1,
			"duration": 130,
			"sortorder": 137,
			"open": false,
			"DO_MAX_Cost": 0,
			"PO_MAX_Cost": 29,
			"MO_MAX_Cost": 0,
			"MAT_MAX_Cost": 8727,
			"type": "task"
		},
		{
			"id": 4323,
			"parent": 11528,
			"owner_id": 1124,
			"text": "1087.1.1212951.3 2Stück Produktion",
			"start_date": "2018-03-29 11:48:00",
			"progress": null,
			"duration": 168.5,
			"sortorder": 138,
			"open": false,
			"DO_MAX_Cost": 0,
			"PO_MAX_Cost": 29,
			"MO_MAX_Cost": 0,
			"MAT_MAX_Cost": 8727,
			"type": "subtask",
			"color": "#c30"
		},
		{
			"id": 4324,
			"parent": 11528,
			"owner_id": 1101,
			"text": "1087.1.1212951.3 AVOR",
			"start_date": "2018-03-29 11:48:16",
			"progress": null,
			"duration": 62.5,
			"sortorder": 139,
			"open": false,
			"DO_MAX_Cost": 0,
			"PO_MAX_Cost": 29,
			"MO_MAX_Cost": 0,
			"MAT_MAX_Cost": 8727,
			"type": "subtask",
			"color": "#c30"
		},
		{
			"id": 4325,
			"parent": 11528,
			"owner_id": 1124,
			"text": "1083.1.1212951.2 PRODUKTION",
			"start_date": "2018-03-29 11:49:20",
			"progress": null,
			"duration": 161.5,
			"sortorder": 140,
			"open": false,
			"DO_MAX_Cost": 0,
			"PO_MAX_Cost": 29,
			"MO_MAX_Cost": 0,
			"MAT_MAX_Cost": 8727,
			"type": "subtask",
			"color": "#c30"
		},
		{
			"id": 4326,
			"parent": 11528,
			"owner_id": 1101,
			"text": "1083.1.1212951.2 AVOR",
			"start_date": "2018-03-29 11:49:38",
			"progress": null,
			"duration": 62.5,
			"sortorder": 141,
			"open": false,
			"DO_MAX_Cost": 0,
			"PO_MAX_Cost": 29,
			"MO_MAX_Cost": 0,
			"MAT_MAX_Cost": 8727,
			"type": "subtask",
			"color": "#c30"
		},
		{
			"id": 4330,
			"parent": 11528,
			"owner_id": 1124,
			"text": "1087.1.1212951.3.1.8001001",
			"start_date": "2018-04-04 07:19:13",
			"progress": null,
			"duration": 148.7,
			"sortorder": 142,
			"open": false,
			"DO_MAX_Cost": 0,
			"PO_MAX_Cost": 29,
			"MO_MAX_Cost": 0,
			"MAT_MAX_Cost": 8727,
			"type": "subtask",
			"color": "#c30"
		},
		{
			"id": 4331,
			"parent": 11528,
			"owner_id": 1124,
			"text": "1083.1.1212951.2.1.8001001",
			"start_date": "2018-04-04 07:20:02",
			"progress": null,
			"duration": 56.7,
			"sortorder": 143,
			"open": false,
			"DO_MAX_Cost": 0,
			"PO_MAX_Cost": 29,
			"MO_MAX_Cost": 0,
			"MAT_MAX_Cost": 8727,
			"type": "subtask",
			"color": "#c30"
		},
		{
			"id": 4422,
			"parent": 11528,
			"owner_id": 1115,
			"text": "1083.1.1212951.2 RÜSTEN",
			"start_date": "2018-04-24 07:34:57",
			"progress": null,
			"duration": 16.7,
			"sortorder": 144,
			"open": false,
			"DO_MAX_Cost": 0,
			"PO_MAX_Cost": 29,
			"MO_MAX_Cost": 0,
			"MAT_MAX_Cost": 8727,
			"type": "subtask",
			"color": "#c30"
		},
		{
			"id": 4423,
			"parent": 11528,
			"owner_id": 1115,
			"text": "1087.1.1212951.3 RÜSTEN",
			"start_date": "2018-04-24 07:36:36",
			"progress": null,
			"duration": 21.7,
			"sortorder": 145,
			"open": false,
			"DO_MAX_Cost": 0,
			"PO_MAX_Cost": 29,
			"MO_MAX_Cost": 0,
			"MAT_MAX_Cost": 8727,
			"type": "subtask",
			"color": "#c30"
		},
		{
			"id": 11528,
			"parent": 618,
			"text": "1 each KMI101, 2 each KMI102",
			"owner_id": 1115,
			"start_date": "2018-05-14 00:00:00",
			"progress": 1,
			"duration": 130,
			"sortorder": 146,
			"open": false,
			"DO_MAX_Cost": 0,
			"PO_MAX_Cost": 29,
			"MO_MAX_Cost": 0,
			"MAT_MAX_Cost": 8727,
			"type": "task"
		},
		{
			"id": 4323,
			"parent": 11528,
			"owner_id": 1124,
			"text": "1087.1.1212951.3 2Stück Produktion",
			"start_date": "2018-03-29 11:48:00",
			"progress": null,
			"duration": 168.5,
			"sortorder": 147,
			"open": false,
			"DO_MAX_Cost": 0,
			"PO_MAX_Cost": 29,
			"MO_MAX_Cost": 0,
			"MAT_MAX_Cost": 8727,
			"type": "subtask",
			"color": "#c30"
		},
		{
			"id": 4324,
			"parent": 11528,
			"owner_id": 1101,
			"text": "1087.1.1212951.3 AVOR",
			"start_date": "2018-03-29 11:48:16",
			"progress": null,
			"duration": 62.5,
			"sortorder": 148,
			"open": false,
			"DO_MAX_Cost": 0,
			"PO_MAX_Cost": 29,
			"MO_MAX_Cost": 0,
			"MAT_MAX_Cost": 8727,
			"type": "subtask",
			"color": "#c30"
		},
		{
			"id": 4325,
			"parent": 11528,
			"owner_id": 1124,
			"text": "1083.1.1212951.2 PRODUKTION",
			"start_date": "2018-03-29 11:49:20",
			"progress": null,
			"duration": 161.5,
			"sortorder": 149,
			"open": false,
			"DO_MAX_Cost": 0,
			"PO_MAX_Cost": 29,
			"MO_MAX_Cost": 0,
			"MAT_MAX_Cost": 8727,
			"type": "subtask",
			"color": "#c30"
		},
		{
			"id": 4326,
			"parent": 11528,
			"owner_id": 1101,
			"text": "1083.1.1212951.2 AVOR",
			"start_date": "2018-03-29 11:49:38",
			"progress": null,
			"duration": 62.5,
			"sortorder": 150,
			"open": false,
			"DO_MAX_Cost": 0,
			"PO_MAX_Cost": 29,
			"MO_MAX_Cost": 0,
			"MAT_MAX_Cost": 8727,
			"type": "subtask",
			"color": "#c30"
		},
		{
			"id": 4330,
			"parent": 11528,
			"owner_id": 1124,
			"text": "1087.1.1212951.3.1.8001001",
			"start_date": "2018-04-04 07:19:13",
			"progress": null,
			"duration": 148.7,
			"sortorder": 151,
			"open": false,
			"DO_MAX_Cost": 0,
			"PO_MAX_Cost": 29,
			"MO_MAX_Cost": 0,
			"MAT_MAX_Cost": 8727,
			"type": "subtask",
			"color": "#c30"
		},
		{
			"id": 4331,
			"parent": 11528,
			"owner_id": 1124,
			"text": "1083.1.1212951.2.1.8001001",
			"start_date": "2018-04-04 07:20:02",
			"progress": null,
			"duration": 56.7,
			"sortorder": 152,
			"open": false,
			"DO_MAX_Cost": 0,
			"PO_MAX_Cost": 29,
			"MO_MAX_Cost": 0,
			"MAT_MAX_Cost": 8727,
			"type": "subtask",
			"color": "#c30"
		},
		{
			"id": 4422,
			"parent": 11528,
			"owner_id": 1115,
			"text": "1083.1.1212951.2 RÜSTEN",
			"start_date": "2018-04-24 07:34:57",
			"progress": null,
			"duration": 16.7,
			"sortorder": 153,
			"open": false,
			"DO_MAX_Cost": 0,
			"PO_MAX_Cost": 29,
			"MO_MAX_Cost": 0,
			"MAT_MAX_Cost": 8727,
			"type": "subtask",
			"color": "#c30"
		},
		{
			"id": 4423,
			"parent": 11528,
			"owner_id": 1115,
			"text": "1087.1.1212951.3 RÜSTEN",
			"start_date": "2018-04-24 07:36:36",
			"progress": null,
			"duration": 21.7,
			"sortorder": 154,
			"open": false,
			"DO_MAX_Cost": 0,
			"PO_MAX_Cost": 29,
			"MO_MAX_Cost": 0,
			"MAT_MAX_Cost": 8727,
			"type": "subtask",
			"color": "#c30"
		},
		{
			"id": 11528,
			"parent": 618,
			"text": "1 each KMI101, 2 each KMI102",
			"owner_id": 1115,
			"start_date": "2018-05-14 00:00:00",
			"progress": 1,
			"duration": 130,
			"sortorder": 155,
			"open": false,
			"DO_MAX_Cost": 0,
			"PO_MAX_Cost": 29,
			"MO_MAX_Cost": 0,
			"MAT_MAX_Cost": 8727,
			"type": "task"
		},
		{
			"id": 4323,
			"parent": 11528,
			"owner_id": 1124,
			"text": "1087.1.1212951.3 2Stück Produktion",
			"start_date": "2018-03-29 11:48:00",
			"progress": null,
			"duration": 168.5,
			"sortorder": 156,
			"open": false,
			"DO_MAX_Cost": 0,
			"PO_MAX_Cost": 29,
			"MO_MAX_Cost": 0,
			"MAT_MAX_Cost": 8727,
			"type": "subtask",
			"color": "#c30"
		},
		{
			"id": 4324,
			"parent": 11528,
			"owner_id": 1101,
			"text": "1087.1.1212951.3 AVOR",
			"start_date": "2018-03-29 11:48:16",
			"progress": null,
			"duration": 62.5,
			"sortorder": 157,
			"open": false,
			"DO_MAX_Cost": 0,
			"PO_MAX_Cost": 29,
			"MO_MAX_Cost": 0,
			"MAT_MAX_Cost": 8727,
			"type": "subtask",
			"color": "#c30"
		},
		{
			"id": 4325,
			"parent": 11528,
			"owner_id": 1124,
			"text": "1083.1.1212951.2 PRODUKTION",
			"start_date": "2018-03-29 11:49:20",
			"progress": null,
			"duration": 161.5,
			"sortorder": 158,
			"open": false,
			"DO_MAX_Cost": 0,
			"PO_MAX_Cost": 29,
			"MO_MAX_Cost": 0,
			"MAT_MAX_Cost": 8727,
			"type": "subtask",
			"color": "#c30"
		},
		{
			"id": 4326,
			"parent": 11528,
			"owner_id": 1101,
			"text": "1083.1.1212951.2 AVOR",
			"start_date": "2018-03-29 11:49:38",
			"progress": null,
			"duration": 62.5,
			"sortorder": 159,
			"open": false,
			"DO_MAX_Cost": 0,
			"PO_MAX_Cost": 29,
			"MO_MAX_Cost": 0,
			"MAT_MAX_Cost": 8727,
			"type": "subtask",
			"color": "#c30"
		},
		{
			"id": 4330,
			"parent": 11528,
			"owner_id": 1124,
			"text": "1087.1.1212951.3.1.8001001",
			"start_date": "2018-04-04 07:19:13",
			"progress": null,
			"duration": 148.7,
			"sortorder": 160,
			"open": false,
			"DO_MAX_Cost": 0,
			"PO_MAX_Cost": 29,
			"MO_MAX_Cost": 0,
			"MAT_MAX_Cost": 8727,
			"type": "subtask",
			"color": "#c30"
		},
		{
			"id": 4331,
			"parent": 11528,
			"owner_id": 1124,
			"text": "1083.1.1212951.2.1.8001001",
			"start_date": "2018-04-04 07:20:02",
			"progress": null,
			"duration": 56.7,
			"sortorder": 161,
			"open": false,
			"DO_MAX_Cost": 0,
			"PO_MAX_Cost": 29,
			"MO_MAX_Cost": 0,
			"MAT_MAX_Cost": 8727,
			"type": "subtask",
			"color": "#c30"
		},
		{
			"id": 4422,
			"parent": 11528,
			"owner_id": 1115,
			"text": "1083.1.1212951.2 RÜSTEN",
			"start_date": "2018-04-24 07:34:57",
			"progress": null,
			"duration": 16.7,
			"sortorder": 162,
			"open": false,
			"DO_MAX_Cost": 0,
			"PO_MAX_Cost": 29,
			"MO_MAX_Cost": 0,
			"MAT_MAX_Cost": 8727,
			"type": "subtask",
			"color": "#c30"
		},
		{
			"id": 4423,
			"parent": 11528,
			"owner_id": 1115,
			"text": "1087.1.1212951.3 RÜSTEN",
			"start_date": "2018-04-24 07:36:36",
			"progress": null,
			"duration": 21.7,
			"sortorder": 163,
			"open": false,
			"DO_MAX_Cost": 0,
			"PO_MAX_Cost": 29,
			"MO_MAX_Cost": 0,
			"MAT_MAX_Cost": 8727,
			"type": "subtask",
			"color": "#c30"
		},
		{
			"id": 1468,
			"parent": 0,
			"start_date": "",
			"text": "PO-AEL",
			"progress": 1,
			"duration": "",
			"sortorder": 164,
			"open": false,
			"DO_MAX_Cost": "8/1040",
			"PO_MAX_Cost": "16/2030",
			"MO_MAX_Cost": "0/0",
			"MAT_MAX_Cost": 192458,
			"type": "project"
		},
		{
			"id": 11607,
			"parent": 1468,
			"text": "Verdrahtung 1 Stk. 3 Stretcher Unit",
			"owner_id": 1130,
			"start_date": "2018-05-08 00:00:00",
			"progress": 1,
			"duration": 21,
			"sortorder": 165,
			"open": false,
			"DO_MAX_Cost": 0,
			"PO_MAX_Cost": 0,
			"MO_MAX_Cost": 0,
			"MAT_MAX_Cost": 5070,
			"type": "task"
		},
		{
			"id": 4503,
			"parent": 11607,
			"owner_id": 1130,
			"text": "1144.1.1619190-1",
			"start_date": "2018-05-07 14:06:18",
			"progress": null,
			"duration": 17.4,
			"sortorder": 166,
			"open": false,
			"DO_MAX_Cost": 0,
			"PO_MAX_Cost": 0,
			"MO_MAX_Cost": 0,
			"MAT_MAX_Cost": 5070,
			"type": "subtask",
			"color": "#c30"
		},
		{
			"id": 4504,
			"parent": 11607,
			"owner_id": 1101,
			"text": "1144.1.1619190-1",
			"start_date": "2018-05-07 14:06:36",
			"progress": null,
			"duration": 1.4,
			"sortorder": 167,
			"open": false,
			"DO_MAX_Cost": 0,
			"PO_MAX_Cost": 0,
			"MO_MAX_Cost": 0,
			"MAT_MAX_Cost": 5070,
			"type": "subtask",
			"color": "#c30"
		},
		{
			"id": 11607,
			"parent": 1468,
			"text": "Verdrahtung 1 Stk. 3 Stretcher Unit",
			"owner_id": 1101,
			"start_date": "2018-05-08 00:00:00",
			"progress": 1,
			"duration": 21,
			"sortorder": 168,
			"open": false,
			"DO_MAX_Cost": 0,
			"PO_MAX_Cost": 0,
			"MO_MAX_Cost": 0,
			"MAT_MAX_Cost": 5070,
			"type": "task"
		},
		{
			"id": 4503,
			"parent": 11607,
			"owner_id": 1130,
			"text": "1144.1.1619190-1",
			"start_date": "2018-05-07 14:06:18",
			"progress": null,
			"duration": 17.4,
			"sortorder": 169,
			"open": false,
			"DO_MAX_Cost": 0,
			"PO_MAX_Cost": 0,
			"MO_MAX_Cost": 0,
			"MAT_MAX_Cost": 5070,
			"type": "subtask",
			"color": "#c30"
		},
		{
			"id": 4504,
			"parent": 11607,
			"owner_id": 1101,
			"text": "1144.1.1619190-1",
			"start_date": "2018-05-07 14:06:36",
			"progress": null,
			"duration": 1.4,
			"sortorder": 170,
			"open": false,
			"DO_MAX_Cost": 0,
			"PO_MAX_Cost": 0,
			"MO_MAX_Cost": 0,
			"MAT_MAX_Cost": 5070,
			"type": "subtask",
			"color": "#c30"
		},
		{
			"id": 11600,
			"parent": 1468,
			"text": "1 Stk. PPK Cabin Ceiling Elec. Integration",
			"owner_id": 1115,
			"start_date": "2018-05-03 00:00:00",
			"progress": 1,
			"duration": 13,
			"sortorder": 171,
			"open": false,
			"DO_MAX_Cost": 0,
			"PO_MAX_Cost": 2,
			"MO_MAX_Cost": 0,
			"MAT_MAX_Cost": 5517,
			"type": "task"
		},
		{
			"id": 4486,
			"parent": 11600,
			"owner_id": 1115,
			"text": "1134.1.PPK-1212018.2 Versand",
			"start_date": "2018-05-03 11:41:29",
			"progress": null,
			"duration": 11.5,
			"sortorder": 172,
			"open": false,
			"DO_MAX_Cost": 0,
			"PO_MAX_Cost": 2,
			"MO_MAX_Cost": 0,
			"MAT_MAX_Cost": 5517,
			"type": "subtask",
			"color": "#c30"
		},
		{
			"id": 4487,
			"parent": 11600,
			"owner_id": 1128,
			"text": "1135.1.1517350.4",
			"start_date": "2018-05-03 11:42:06",
			"progress": null,
			"duration": 5.5,
			"sortorder": 173,
			"open": false,
			"DO_MAX_Cost": 0,
			"PO_MAX_Cost": 2,
			"MO_MAX_Cost": 0,
			"MAT_MAX_Cost": 5517,
			"type": "subtask",
			"color": "#c30"
		},
		{
			"id": 4488,
			"parent": 11600,
			"owner_id": 1101,
			"text": "1135.1.1517350.4 Odrner",
			"start_date": "2018-05-03 12:15:50",
			"progress": null,
			"duration": 0.5,
			"sortorder": 174,
			"open": false,
			"DO_MAX_Cost": 0,
			"PO_MAX_Cost": 2,
			"MO_MAX_Cost": 0,
			"MAT_MAX_Cost": 5517,
			"type": "subtask",
			"color": "#c30"
		},
		{
			"id": 4489,
			"parent": 11600,
			"owner_id": 1128,
			"text": "1137.1.1517350.4.2.8001001 PRODUKTION",
			"start_date": "2018-05-03 12:22:09",
			"progress": null,
			"duration": 4.5,
			"sortorder": 175,
			"open": false,
			"DO_MAX_Cost": 0,
			"PO_MAX_Cost": 2,
			"MO_MAX_Cost": 0,
			"MAT_MAX_Cost": 5517,
			"type": "subtask",
			"color": "#c30"
		},
		{
			"id": 11600,
			"parent": 1468,
			"text": "1 Stk. PPK Cabin Ceiling Elec. Integration",
			"owner_id": 1128,
			"start_date": "2018-05-03 00:00:00",
			"progress": 1,
			"duration": 13,
			"sortorder": 176,
			"open": false,
			"DO_MAX_Cost": 0,
			"PO_MAX_Cost": 2,
			"MO_MAX_Cost": 0,
			"MAT_MAX_Cost": 5517,
			"type": "task"
		},
		{
			"id": 4486,
			"parent": 11600,
			"owner_id": 1115,
			"text": "1134.1.PPK-1212018.2 Versand",
			"start_date": "2018-05-03 11:41:29",
			"progress": null,
			"duration": 11.5,
			"sortorder": 177,
			"open": false,
			"DO_MAX_Cost": 0,
			"PO_MAX_Cost": 2,
			"MO_MAX_Cost": 0,
			"MAT_MAX_Cost": 5517,
			"type": "subtask",
			"color": "#c30"
		},
		{
			"id": 4487,
			"parent": 11600,
			"owner_id": 1128,
			"text": "1135.1.1517350.4",
			"start_date": "2018-05-03 11:42:06",
			"progress": null,
			"duration": 5.5,
			"sortorder": 178,
			"open": false,
			"DO_MAX_Cost": 0,
			"PO_MAX_Cost": 2,
			"MO_MAX_Cost": 0,
			"MAT_MAX_Cost": 5517,
			"type": "subtask",
			"color": "#c30"
		},
		{
			"id": 4488,
			"parent": 11600,
			"owner_id": 1101,
			"text": "1135.1.1517350.4 Odrner",
			"start_date": "2018-05-03 12:15:50",
			"progress": null,
			"duration": 0.5,
			"sortorder": 179,
			"open": false,
			"DO_MAX_Cost": 0,
			"PO_MAX_Cost": 2,
			"MO_MAX_Cost": 0,
			"MAT_MAX_Cost": 5517,
			"type": "subtask",
			"color": "#c30"
		},
		{
			"id": 4489,
			"parent": 11600,
			"owner_id": 1128,
			"text": "1137.1.1517350.4.2.8001001 PRODUKTION",
			"start_date": "2018-05-03 12:22:09",
			"progress": null,
			"duration": 4.5,
			"sortorder": 180,
			"open": false,
			"DO_MAX_Cost": 0,
			"PO_MAX_Cost": 2,
			"MO_MAX_Cost": 0,
			"MAT_MAX_Cost": 5517,
			"type": "subtask",
			"color": "#c30"
		},
		{
			"id": 11600,
			"parent": 1468,
			"text": "1 Stk. PPK Cabin Ceiling Elec. Integration",
			"owner_id": 1101,
			"start_date": "2018-05-03 00:00:00",
			"progress": 1,
			"duration": 13,
			"sortorder": 181,
			"open": false,
			"DO_MAX_Cost": 0,
			"PO_MAX_Cost": 2,
			"MO_MAX_Cost": 0,
			"MAT_MAX_Cost": 5517,
			"type": "task"
		},
		{
			"id": 4486,
			"parent": 11600,
			"owner_id": 1115,
			"text": "1134.1.PPK-1212018.2 Versand",
			"start_date": "2018-05-03 11:41:29",
			"progress": null,
			"duration": 11.5,
			"sortorder": 182,
			"open": false,
			"DO_MAX_Cost": 0,
			"PO_MAX_Cost": 2,
			"MO_MAX_Cost": 0,
			"MAT_MAX_Cost": 5517,
			"type": "subtask",
			"color": "#c30"
		},
		{
			"id": 4487,
			"parent": 11600,
			"owner_id": 1128,
			"text": "1135.1.1517350.4",
			"start_date": "2018-05-03 11:42:06",
			"progress": null,
			"duration": 5.5,
			"sortorder": 183,
			"open": false,
			"DO_MAX_Cost": 0,
			"PO_MAX_Cost": 2,
			"MO_MAX_Cost": 0,
			"MAT_MAX_Cost": 5517,
			"type": "subtask",
			"color": "#c30"
		},
		{
			"id": 4488,
			"parent": 11600,
			"owner_id": 1101,
			"text": "1135.1.1517350.4 Odrner",
			"start_date": "2018-05-03 12:15:50",
			"progress": null,
			"duration": 0.5,
			"sortorder": 184,
			"open": false,
			"DO_MAX_Cost": 0,
			"PO_MAX_Cost": 2,
			"MO_MAX_Cost": 0,
			"MAT_MAX_Cost": 5517,
			"type": "subtask",
			"color": "#c30"
		},
		{
			"id": 4489,
			"parent": 11600,
			"owner_id": 1128,
			"text": "1137.1.1517350.4.2.8001001 PRODUKTION",
			"start_date": "2018-05-03 12:22:09",
			"progress": null,
			"duration": 4.5,
			"sortorder": 185,
			"open": false,
			"DO_MAX_Cost": 0,
			"PO_MAX_Cost": 2,
			"MO_MAX_Cost": 0,
			"MAT_MAX_Cost": 5517,
			"type": "subtask",
			"color": "#c30"
		},
		{
			"id": 11600,
			"parent": 1468,
			"text": "1 Stk. PPK Cabin Ceiling Elec. Integration",
			"owner_id": 1128,
			"start_date": "2018-05-03 00:00:00",
			"progress": 1,
			"duration": 13,
			"sortorder": 186,
			"open": false,
			"DO_MAX_Cost": 0,
			"PO_MAX_Cost": 2,
			"MO_MAX_Cost": 0,
			"MAT_MAX_Cost": 5517,
			"type": "task"
		},
		{
			"id": 4486,
			"parent": 11600,
			"owner_id": 1115,
			"text": "1134.1.PPK-1212018.2 Versand",
			"start_date": "2018-05-03 11:41:29",
			"progress": null,
			"duration": 11.5,
			"sortorder": 187,
			"open": false,
			"DO_MAX_Cost": 0,
			"PO_MAX_Cost": 2,
			"MO_MAX_Cost": 0,
			"MAT_MAX_Cost": 5517,
			"type": "subtask",
			"color": "#c30"
		},
		{
			"id": 4487,
			"parent": 11600,
			"owner_id": 1128,
			"text": "1135.1.1517350.4",
			"start_date": "2018-05-03 11:42:06",
			"progress": null,
			"duration": 5.5,
			"sortorder": 188,
			"open": false,
			"DO_MAX_Cost": 0,
			"PO_MAX_Cost": 2,
			"MO_MAX_Cost": 0,
			"MAT_MAX_Cost": 5517,
			"type": "subtask",
			"color": "#c30"
		},
		{
			"id": 4488,
			"parent": 11600,
			"owner_id": 1101,
			"text": "1135.1.1517350.4 Odrner",
			"start_date": "2018-05-03 12:15:50",
			"progress": null,
			"duration": 0.5,
			"sortorder": 189,
			"open": false,
			"DO_MAX_Cost": 0,
			"PO_MAX_Cost": 2,
			"MO_MAX_Cost": 0,
			"MAT_MAX_Cost": 5517,
			"type": "subtask",
			"color": "#c30"
		},
		{
			"id": 4489,
			"parent": 11600,
			"owner_id": 1128,
			"text": "1137.1.1517350.4.2.8001001 PRODUKTION",
			"start_date": "2018-05-03 12:22:09",
			"progress": null,
			"duration": 4.5,
			"sortorder": 190,
			"open": false,
			"DO_MAX_Cost": 0,
			"PO_MAX_Cost": 2,
			"MO_MAX_Cost": 0,
			"MAT_MAX_Cost": 5517,
			"type": "subtask",
			"color": "#c30"
		},
		{
			"id": 229,
			"parent": 0,
			"start_date": "",
			"text": "HB-XYP",
			"progress": 1,
			"duration": "",
			"sortorder": 191,
			"open": false,
			"DO_MAX_Cost": "0/0",
			"PO_MAX_Cost": "0/0",
			"MO_MAX_Cost": "20/2600",
			"MAT_MAX_Cost": 5509,
			"type": "project"
		},
		{
			"id": 11422,
			"parent": 229,
			"text": "8.33 kHz VHF COM Replacement, HB-XYP // Flatrate",
			"owner_id": 1052,
			"start_date": "2018-02-14 00:00:00",
			"progress": 1,
			"duration": 68,
			"sortorder": 192,
			"open": false,
			"DO_MAX_Cost": 0,
			"PO_MAX_Cost": 0,
			"MO_MAX_Cost": 20,
			"MAT_MAX_Cost": 5509,
			"type": "task"
		},
		{
			"id": 4133,
			"parent": 11422,
			"owner_id": 1052,
			"text": "Installation 8.33 HB-XYP",
			"start_date": "2018-02-27 09:44:44",
			"progress": null,
			"duration": 2.6,
			"sortorder": 193,
			"open": false,
			"DO_MAX_Cost": 0,
			"PO_MAX_Cost": 0,
			"MO_MAX_Cost": 20,
			"MAT_MAX_Cost": 5509,
			"type": "subtask",
			"color": "#c30"
		},
		{
			"id": 1623,
			"parent": 0,
			"start_date": "",
			"text": "HB-ZKA",
			"progress": 1,
			"duration": "",
			"sortorder": 194,
			"open": false,
			"DO_MAX_Cost": "0/0",
			"PO_MAX_Cost": "0/0",
			"MO_MAX_Cost": "20/2600",
			"MAT_MAX_Cost": 5509,
			"type": "project"
		},
		{
			"id": 11424,
			"parent": 1623,
			"text": "8.33 kHz VHF COM Replacement, HB-ZKA",
			"owner_id": 1029,
			"start_date": "2018-02-14 00:00:00",
			"progress": 1,
			"duration": 58,
			"sortorder": 195,
			"open": false,
			"DO_MAX_Cost": 0,
			"PO_MAX_Cost": 0,
			"MO_MAX_Cost": 20,
			"MAT_MAX_Cost": 5509,
			"type": "task"
		},
		{
			"id": 4131,
			"parent": 11424,
			"owner_id": 1029,
			"text": "Material Bestellung HB-ZKA 8.33 Umbau",
			"start_date": "2018-02-27 09:36:15",
			"progress": null,
			"duration": 7.6,
			"sortorder": 196,
			"open": false,
			"DO_MAX_Cost": 0,
			"PO_MAX_Cost": 0,
			"MO_MAX_Cost": 20,
			"MAT_MAX_Cost": 5509,
			"type": "subtask",
			"color": "#c30"
		},
		{
			"id": 4132,
			"parent": 11424,
			"owner_id": 1052,
			"text": "Installation 8.33 HB ZKA",
			"start_date": "2018-02-27 09:39:37",
			"progress": null,
			"duration": 14.6,
			"sortorder": 197,
			"open": false,
			"DO_MAX_Cost": 0,
			"PO_MAX_Cost": 0,
			"MO_MAX_Cost": 20,
			"MAT_MAX_Cost": 5509,
			"type": "subtask",
			"color": "#c30"
		},
		{
			"id": 11424,
			"parent": 1623,
			"text": "8.33 kHz VHF COM Replacement, HB-ZKA",
			"owner_id": 1052,
			"start_date": "2018-02-14 00:00:00",
			"progress": 1,
			"duration": 58,
			"sortorder": 198,
			"open": false,
			"DO_MAX_Cost": 0,
			"PO_MAX_Cost": 0,
			"MO_MAX_Cost": 20,
			"MAT_MAX_Cost": 5509,
			"type": "task"
		},
		{
			"id": 4131,
			"parent": 11424,
			"owner_id": 1029,
			"text": "Material Bestellung HB-ZKA 8.33 Umbau",
			"start_date": "2018-02-27 09:36:15",
			"progress": null,
			"duration": 7.6,
			"sortorder": 199,
			"open": false,
			"DO_MAX_Cost": 0,
			"PO_MAX_Cost": 0,
			"MO_MAX_Cost": 20,
			"MAT_MAX_Cost": 5509,
			"type": "subtask",
			"color": "#c30"
		},
		{
			"id": 4132,
			"parent": 11424,
			"owner_id": 1052,
			"text": "Installation 8.33 HB ZKA",
			"start_date": "2018-02-27 09:39:37",
			"progress": null,
			"duration": 14.6,
			"sortorder": 200,
			"open": false,
			"DO_MAX_Cost": 0,
			"PO_MAX_Cost": 0,
			"MO_MAX_Cost": 20,
			"MAT_MAX_Cost": 5509,
			"type": "subtask",
			"color": "#c30"
		},
		{
			"id": 1561,
			"parent": 0,
			"start_date": "",
			"text": "PO-BLAG",
			"progress": 1,
			"duration": "",
			"sortorder": 201,
			"open": false,
			"DO_MAX_Cost": "0/0",
			"PO_MAX_Cost": "239/31081",
			"MO_MAX_Cost": "0/0",
			"MAT_MAX_Cost": 136303,
			"type": "project"
		},
		{
			"id": 11487,
			"parent": 1561,
			"text": "Rahmenvertrag_1 Stk. SERVICE PANEL RH DRF12",
			"owner_id": 1119,
			"start_date": "2018-03-27 00:00:00",
			"progress": 1,
			"duration": 31,
			"sortorder": 202,
			"open": false,
			"DO_MAX_Cost": 0,
			"PO_MAX_Cost": 18,
			"MO_MAX_Cost": 0,
			"MAT_MAX_Cost": 6978,
			"type": "task"
		},
		{
			"id": 4229,
			"parent": 11487,
			"owner_id": 1119,
			"text": "1059.1.1212911.82.1PRODUKTION",
			"start_date": "2018-03-13 06:49:47",
			"progress": null,
			"duration": 36.7,
			"sortorder": 203,
			"open": false,
			"DO_MAX_Cost": 0,
			"PO_MAX_Cost": 18,
			"MO_MAX_Cost": 0,
			"MAT_MAX_Cost": 6978,
			"type": "subtask",
			"color": "#c30"
		},
		{
			"id": 4230,
			"parent": 11487,
			"owner_id": 1115,
			"text": "1059.1.1212911.82.1 AVOR",
			"start_date": "2018-03-13 06:50:04",
			"progress": null,
			"duration": 16.7,
			"sortorder": 204,
			"open": false,
			"DO_MAX_Cost": 0,
			"PO_MAX_Cost": 18,
			"MO_MAX_Cost": 0,
			"MAT_MAX_Cost": 6978,
			"type": "subtask",
			"color": "#c30"
		},
		{
			"id": 11487,
			"parent": 1561,
			"text": "Rahmenvertrag_1 Stk. SERVICE PANEL RH DRF12",
			"owner_id": 1115,
			"start_date": "2018-03-27 00:00:00",
			"progress": 1,
			"duration": 31,
			"sortorder": 205,
			"open": false,
			"DO_MAX_Cost": 0,
			"PO_MAX_Cost": 18,
			"MO_MAX_Cost": 0,
			"MAT_MAX_Cost": 6978,
			"type": "task"
		},
		{
			"id": 4229,
			"parent": 11487,
			"owner_id": 1119,
			"text": "1059.1.1212911.82.1PRODUKTION",
			"start_date": "2018-03-13 06:49:47",
			"progress": null,
			"duration": 36.7,
			"sortorder": 206,
			"open": false,
			"DO_MAX_Cost": 0,
			"PO_MAX_Cost": 18,
			"MO_MAX_Cost": 0,
			"MAT_MAX_Cost": 6978,
			"type": "subtask",
			"color": "#c30"
		},
		{
			"id": 4230,
			"parent": 11487,
			"owner_id": 1115,
			"text": "1059.1.1212911.82.1 AVOR",
			"start_date": "2018-03-13 06:50:04",
			"progress": null,
			"duration": 16.7,
			"sortorder": 207,
			"open": false,
			"DO_MAX_Cost": 0,
			"PO_MAX_Cost": 18,
			"MO_MAX_Cost": 0,
			"MAT_MAX_Cost": 6978,
			"type": "subtask",
			"color": "#c30"
		},
		{
			"id": 11488,
			"parent": 1561,
			"text": "Rahmenvertrag_1 Stk. EMS SHELF ADAC16",
			"owner_id": 1033,
			"start_date": "2018-03-27 00:00:00",
			"progress": 1,
			"duration": 58,
			"sortorder": 208,
			"open": false,
			"DO_MAX_Cost": 0,
			"PO_MAX_Cost": 49,
			"MO_MAX_Cost": 0,
			"MAT_MAX_Cost": 17810,
			"type": "task"
		},
		{
			"id": 4227,
			"parent": 11488,
			"owner_id": 1033,
			"text": "1073.1.1212911.83.1 PRODUKTION",
			"start_date": "2018-03-13 06:39:17",
			"progress": null,
			"duration": 68.7,
			"sortorder": 209,
			"open": false,
			"DO_MAX_Cost": 0,
			"PO_MAX_Cost": 49,
			"MO_MAX_Cost": 0,
			"MAT_MAX_Cost": 17810,
			"type": "subtask",
			"color": "#c30"
		},
		{
			"id": 4228,
			"parent": 11488,
			"owner_id": 1115,
			"text": "1046.1.1212911.83.1 AVOR",
			"start_date": "2018-03-13 06:39:41",
			"progress": null,
			"duration": 0.7,
			"sortorder": 210,
			"open": false,
			"DO_MAX_Cost": 0,
			"PO_MAX_Cost": 49,
			"MO_MAX_Cost": 0,
			"MAT_MAX_Cost": 17810,
			"type": "subtask",
			"color": "#c30"
		},
		{
			"id": 4243,
			"parent": 11488,
			"owner_id": 1113,
			"text": "1046.1.1212911.83.1 VORBEREITUNG",
			"start_date": "2018-03-13 14:24:06",
			"progress": null,
			"duration": 6.4,
			"sortorder": 211,
			"open": false,
			"DO_MAX_Cost": 0,
			"PO_MAX_Cost": 49,
			"MO_MAX_Cost": 0,
			"MAT_MAX_Cost": 17810,
			"type": "subtask",
			"color": "#c30"
		},
		{
			"id": 11488,
			"parent": 1561,
			"text": "Rahmenvertrag_1 Stk. EMS SHELF ADAC16",
			"owner_id": 1115,
			"start_date": "2018-03-27 00:00:00",
			"progress": 1,
			"duration": 58,
			"sortorder": 212,
			"open": false,
			"DO_MAX_Cost": 0,
			"PO_MAX_Cost": 49,
			"MO_MAX_Cost": 0,
			"MAT_MAX_Cost": 17810,
			"type": "task"
		},
		{
			"id": 4227,
			"parent": 11488,
			"owner_id": 1033,
			"text": "1073.1.1212911.83.1 PRODUKTION",
			"start_date": "2018-03-13 06:39:17",
			"progress": null,
			"duration": 68.7,
			"sortorder": 213,
			"open": false,
			"DO_MAX_Cost": 0,
			"PO_MAX_Cost": 49,
			"MO_MAX_Cost": 0,
			"MAT_MAX_Cost": 17810,
			"type": "subtask",
			"color": "#c30"
		},
		{
			"id": 4228,
			"parent": 11488,
			"owner_id": 1115,
			"text": "1046.1.1212911.83.1 AVOR",
			"start_date": "2018-03-13 06:39:41",
			"progress": null,
			"duration": 0.7,
			"sortorder": 214,
			"open": false,
			"DO_MAX_Cost": 0,
			"PO_MAX_Cost": 49,
			"MO_MAX_Cost": 0,
			"MAT_MAX_Cost": 17810,
			"type": "subtask",
			"color": "#c30"
		},
		{
			"id": 4243,
			"parent": 11488,
			"owner_id": 1113,
			"text": "1046.1.1212911.83.1 VORBEREITUNG",
			"start_date": "2018-03-13 14:24:06",
			"progress": null,
			"duration": 6.4,
			"sortorder": 215,
			"open": false,
			"DO_MAX_Cost": 0,
			"PO_MAX_Cost": 49,
			"MO_MAX_Cost": 0,
			"MAT_MAX_Cost": 17810,
			"type": "subtask",
			"color": "#c30"
		}
	]
}